  4.0000e+02   0.0000e+00
  4.0040e+02   0.0000e+00
  4.0080e+02   0.0000e+00
  4.0120e+02   0.0000e+00
  4.0160e+02   0.0000e+00
  4.0200e+02   0.0000e+00
  4.0241e+02   0.0000e+00
  4.0281e+02   0.0000e+00
  4.0321e+02   0.0000e+00
  4.0361e+02   0.0000e+00
  4.0402e+02   0.0000e+00
  4.0442e+02   0.0000e+00
  4.0483e+02   0.0000e+00
  4.0523e+02   0.0000e+00
  4.0564e+02   0.0000e+00
  4.0604e+02   0.0000e+00
  4.0645e+02   0.0000e+00
  4.0685e+02   0.0000e+00
  4.0726e+02   0.0000e+00
  4.0767e+02   0.0000e+00
  4.0808e+02   0.0000e+00
  4.0848e+02   0.0000e+00
  4.0889e+02   0.0000e+00
  4.0930e+02   0.0000e+00
  4.0971e+02   0.0000e+00
  4.1012e+02   0.0000e+00
  4.1053e+02   0.0000e+00
  4.1094e+02   0.0000e+00
  4.1135e+02   0.0000e+00
  4.1176e+02   0.0000e+00
  4.1218e+02   0.0000e+00
  4.1259e+02   0.0000e+00
  4.1300e+02   0.0000e+00
  4.1341e+02   0.0000e+00
  4.1383e+02   0.0000e+00
  4.1424e+02   0.0000e+00
  4.1465e+02   0.0000e+00
  4.1507e+02   0.0000e+00
  4.1548e+02   0.0000e+00
  4.1590e+02   0.0000e+00
  4.1632e+02   0.0000e+00
  4.1673e+02   0.0000e+00
  4.1715e+02   0.0000e+00
  4.1757e+02   0.0000e+00
  4.1798e+02   0.0000e+00
  4.1840e+02   0.0000e+00
  4.1882e+02   0.0000e+00
  4.1924e+02   0.0000e+00
  4.1966e+02   0.0000e+00
  4.2008e+02   0.0000e+00
  4.2050e+02   0.0000e+00
  4.2092e+02   0.0000e+00
  4.2134e+02   0.0000e+00
  4.2176e+02   0.0000e+00
  4.2218e+02   0.0000e+00
  4.2260e+02   0.0000e+00
  4.2303e+02   0.0000e+00
  4.2345e+02   0.0000e+00
  4.2387e+02   0.0000e+00
  4.2430e+02   0.0000e+00
  4.2472e+02   0.0000e+00
  4.2515e+02   0.0000e+00
  4.2557e+02   0.0000e+00
  4.2600e+02   0.0000e+00
  4.2642e+02   0.0000e+00
  4.2685e+02   0.0000e+00
  4.2728e+02   0.0000e+00
  4.2770e+02   0.0000e+00
  4.2813e+02   0.0000e+00
  4.2856e+02   0.0000e+00
  4.2899e+02   0.0000e+00
  4.2942e+02   0.0000e+00
  4.2985e+02   0.0000e+00
  4.3028e+02   0.0000e+00
  4.3071e+02   0.0000e+00
  4.3114e+02   0.0000e+00
  4.3157e+02   0.0000e+00
  4.3200e+02   0.0000e+00
  4.3243e+02   0.0000e+00
  4.3286e+02   0.0000e+00
  4.3330e+02   0.0000e+00
  4.3373e+02   0.0000e+00
  4.3416e+02   0.0000e+00
  4.3460e+02   0.0000e+00
  4.3503e+02   0.0000e+00
  4.3547e+02   0.0000e+00
  4.3590e+02   0.0000e+00
  4.3634e+02   0.0000e+00
  4.3678e+02   0.0000e+00
  4.3721e+02   0.0000e+00
  4.3765e+02   0.0000e+00
  4.3809e+02   0.0000e+00
  4.3853e+02   0.0000e+00
  4.3896e+02   0.0000e+00
  4.3940e+02   0.0000e+00
  4.3984e+02   0.0000e+00
  4.4028e+02   0.0000e+00
  4.4072e+02   0.0000e+00
  4.4116e+02   0.0000e+00
  4.4160e+02   0.0000e+00
  4.4205e+02   0.0000e+00
  4.4249e+02   0.0000e+00
  4.4293e+02   0.0000e+00
  4.4337e+02   0.0000e+00
  4.4382e+02   0.0000e+00
  4.4426e+02   0.0000e+00
  4.4471e+02   0.0000e+00
  4.4515e+02   0.0000e+00
  4.4560e+02   0.0000e+00
  4.4604e+02   0.0000e+00
  4.4649e+02   0.0000e+00
  4.4693e+02   0.0000e+00
  4.4738e+02   0.0000e+00
  4.4783e+02   0.0000e+00
  4.4828e+02   0.0000e+00
  4.4872e+02   0.0000e+00
  4.4917e+02   0.0000e+00
  4.4962e+02   0.0000e+00
  4.5007e+02   0.0000e+00
  4.5052e+02   0.0000e+00
  4.5097e+02   0.0000e+00
  4.5142e+02   0.0000e+00
  4.5187e+02   0.0000e+00
  4.5233e+02   0.0000e+00
  4.5278e+02   0.0000e+00
  4.5323e+02   0.0000e+00
  4.5368e+02   0.0000e+00
  4.5414e+02   0.0000e+00
  4.5459e+02   0.0000e+00
  4.5505e+02   0.0000e+00
  4.5550e+02   0.0000e+00
  4.5596e+02   0.0000e+00
  4.5641e+02   0.0000e+00
  4.5687e+02   0.0000e+00
  4.5733e+02   0.0000e+00
  4.5778e+02   0.0000e+00
  4.5824e+02   0.0000e+00
  4.5870e+02   0.0000e+00
  4.5916e+02   0.0000e+00
  4.5962e+02   0.0000e+00
  4.6008e+02   0.0000e+00
  4.6054e+02   0.0000e+00
  4.6100e+02   0.0000e+00
  4.6146e+02   0.0000e+00
  4.6192e+02   0.0000e+00
  4.6238e+02   0.0000e+00
  4.6284e+02   0.0000e+00
  4.6331e+02   0.0000e+00
  4.6377e+02   0.0000e+00
  4.6423e+02   0.0000e+00
  4.6470e+02   0.0000e+00
  4.6516e+02   0.0000e+00
  4.6563e+02   0.0000e+00
  4.6609e+02   0.0000e+00
  4.6656e+02   0.0000e+00
  4.6703e+02   0.0000e+00
  4.6749e+02   0.0000e+00
  4.6796e+02   0.0000e+00
  4.6843e+02   0.0000e+00
  4.6890e+02   0.0000e+00
  4.6937e+02   0.0000e+00
  4.6984e+02   0.0000e+00
  4.7031e+02   0.0000e+00
  4.7078e+02   0.0000e+00
  4.7125e+02   0.0000e+00
  4.7172e+02   0.0000e+00
  4.7219e+02   0.0000e+00
  4.7266e+02   0.0000e+00
  4.7313e+02   0.0000e+00
  4.7361e+02   0.0000e+00
  4.7408e+02   0.0000e+00
  4.7456e+02   0.0000e+00
  4.7503e+02   0.0000e+00
  4.7551e+02   0.0000e+00
  4.7598e+02   0.0000e+00
  4.7646e+02   0.0000e+00
  4.7693e+02   0.0000e+00
  4.7741e+02   0.0000e+00
  4.7789e+02   0.0000e+00
  4.7837e+02   0.0000e+00
  4.7884e+02   0.0000e+00
  4.7932e+02   0.0000e+00
  4.7980e+02   0.0000e+00
  4.8028e+02   0.0000e+00
  4.8076e+02   0.0000e+00
  4.8124e+02   0.0000e+00
  4.8172e+02   0.0000e+00
  4.8221e+02   0.0000e+00
  4.8269e+02   0.0000e+00
  4.8317e+02   0.0000e+00
  4.8365e+02   0.0000e+00
  4.8414e+02   0.0000e+00
  4.8462e+02   0.0000e+00
  4.8511e+02   0.0000e+00
  4.8559e+02   0.0000e+00
  4.8608e+02   0.0000e+00
  4.8656e+02   0.0000e+00
  4.8705e+02   0.0000e+00
  4.8754e+02   0.0000e+00
  4.8802e+02   0.0000e+00
  4.8851e+02   0.0000e+00
  4.8900e+02   0.0000e+00
  4.8949e+02   0.0000e+00
  4.8998e+02   0.0000e+00
  4.9047e+02   0.0000e+00
  4.9096e+02   0.0000e+00
  4.9145e+02   1.6588e-26
  4.9194e+02   2.5859e-25
  4.9243e+02   4.5753e-24
  4.9293e+02   4.7385e-23
  4.9342e+02   3.4288e-22
  4.9391e+02   1.5125e-21
  4.9441e+02   3.8484e-21
  4.9490e+02   5.8624e-21
  4.9540e+02   7.1193e-21
  4.9589e+02   1.2465e-20
  4.9639e+02   2.5586e-20
  4.9688e+02   3.8087e-20
  4.9738e+02   4.0931e-20
  4.9788e+02   4.1481e-20
  4.9838e+02   4.7491e-20
  4.9887e+02   5.0586e-20
  4.9937e+02   4.3201e-20
  4.9987e+02   3.4494e-20
  5.0037e+02   2.8767e-20
  5.0087e+02   2.4707e-20
  5.0137e+02   2.7805e-20
  5.0188e+02   3.1754e-20
  5.0238e+02   2.5305e-20
  5.0288e+02   1.7052e-20
  5.0338e+02   1.8691e-20
  5.0389e+02   2.7383e-20
  5.0439e+02   3.4254e-20
  5.0489e+02   3.4874e-20
  5.0540e+02   3.4975e-20
  5.0590e+02   4.5473e-20
  5.0641e+02   5.9973e-20
  5.0692e+02   6.2010e-20
  5.0742e+02   5.5258e-20
  5.0793e+02   5.1680e-20
  5.0844e+02   4.9262e-20
  5.0895e+02   4.1548e-20
  5.0946e+02   2.7805e-20
  5.0997e+02   1.4131e-20
  5.1048e+02   5.9598e-21
  5.1099e+02   2.6387e-21
  5.1150e+02   1.5018e-21
  5.1201e+02   8.9504e-22
  5.1252e+02   3.9512e-22
  5.1303e+02   1.1664e-22
  5.1355e+02   4.0893e-23
  5.1406e+02   5.3884e-23
  5.1457e+02   9.2293e-23
  5.1509e+02   1.1066e-22
  5.1560e+02   8.8626e-23
  5.1612e+02   1.2280e-22
  5.1663e+02   4.3009e-22
  5.1715e+02   1.0586e-21
  5.1767e+02   1.4353e-21
  5.1819e+02   1.0578e-21
  5.1870e+02   4.2343e-22
  5.1922e+02   9.2067e-23
  5.1974e+02   1.0873e-23
  5.2026e+02   6.9747e-25
  5.2078e+02   0.0000e+00
  5.2130e+02   0.0000e+00
  5.2182e+02   0.0000e+00
  5.2235e+02   0.0000e+00
  5.2287e+02   0.0000e+00
  5.2339e+02   0.0000e+00
  5.2392e+02   0.0000e+00
  5.2444e+02   0.0000e+00
  5.2496e+02   0.0000e+00
  5.2549e+02   0.0000e+00
  5.2601e+02   0.0000e+00
  5.2654e+02   0.0000e+00
  5.2707e+02   0.0000e+00
  5.2759e+02   0.0000e+00
  5.2812e+02   0.0000e+00
  5.2865e+02   0.0000e+00
  5.2918e+02   0.0000e+00
  5.2971e+02   0.0000e+00
  5.3024e+02   0.0000e+00
  5.3077e+02   0.0000e+00
  5.3130e+02   0.0000e+00
  5.3183e+02   1.6623e-26
  5.3236e+02   3.0418e-25
  5.3289e+02   3.1397e-24
  5.3343e+02   2.2128e-23
  5.3396e+02   1.2544e-22
  5.3449e+02   6.3905e-22
  5.3503e+02   2.6704e-21
  5.3556e+02   8.2697e-21
  5.3610e+02   1.8704e-20
  5.3663e+02   3.2648e-20
  5.3717e+02   4.9624e-20
  5.3771e+02   7.2338e-20
  5.3825e+02   9.2672e-20
  5.3878e+02   9.4232e-20
  5.3932e+02   8.7344e-20
  5.3986e+02   9.9269e-20
  5.4040e+02   1.2928e-19
  5.4094e+02   1.5522e-19
  5.4148e+02   1.6814e-19
  5.4203e+02   1.7307e-19
  5.4257e+02   1.7302e-19
  5.4311e+02   1.7064e-19
  5.4365e+02   1.6462e-19
  5.4420e+02   1.4906e-19
  5.4474e+02   1.4415e-19
  5.4529e+02   1.7155e-19
  5.4583e+02   2.1134e-19
  5.4638e+02   2.2240e-19
  5.4692e+02   2.0462e-19
  5.4747e+02   1.9647e-19
  5.4802e+02   2.0480e-19
  5.4857e+02   2.1144e-19
  5.4911e+02   2.0254e-19
  5.4966e+02   1.6755e-19
  5.5021e+02   1.3053e-19
  5.5076e+02   1.3013e-19
  5.5131e+02   1.5494e-19
  5.5187e+02   1.6571e-19
  5.5242e+02   1.5010e-19
  5.5297e+02   1.2027e-19
  5.5352e+02   9.1935e-20
  5.5408e+02   7.0495e-20
  5.5463e+02   5.3451e-20
  5.5518e+02   4.7897e-20
  5.5574e+02   6.1621e-20
  5.5630e+02   7.9042e-20
  5.5685e+02   7.6681e-20
  5.5741e+02   6.1797e-20
  5.5797e+02   5.5775e-20
  5.5852e+02   5.6415e-20
  5.5908e+02   5.2618e-20
  5.5964e+02   4.2321e-20
  5.6020e+02   2.9224e-20
  5.6076e+02   2.1759e-20
  5.6132e+02   1.9171e-20
  5.6188e+02   1.3794e-20
  5.6245e+02   6.9645e-21
  5.6301e+02   2.6596e-21
  5.6357e+02   8.8324e-22
  5.6413e+02   7.1812e-22
  5.6470e+02   1.6826e-21
  5.6526e+02   3.5364e-21
  5.6583e+02   6.4641e-21
  5.6639e+02   1.1085e-20
  5.6696e+02   1.7666e-20
  5.6753e+02   2.3557e-20
  5.6810e+02   2.6018e-20
  5.6866e+02   2.9148e-20
  5.6923e+02   3.7152e-20
  5.6980e+02   4.6548e-20
  5.7037e+02   5.6449e-20
  5.7094e+02   7.5644e-20
  5.7151e+02   9.8482e-20
  5.7208e+02   1.0334e-19
  5.7266e+02   9.1456e-20
  5.7323e+02   8.3439e-20
  5.7380e+02   8.2223e-20
  5.7438e+02   8.1604e-20
  5.7495e+02   8.9131e-20
  5.7552e+02   1.0862e-19
  5.7610e+02   1.2264e-19
  5.7668e+02   1.1668e-19
  5.7725e+02   1.0715e-19
  5.7783e+02   1.1184e-19
  5.7841e+02   1.1511e-19
  5.7899e+02   1.0724e-19
  5.7957e+02   1.0811e-19
  5.8015e+02   1.3139e-19
  5.8073e+02   1.6056e-19
  5.8131e+02   1.6170e-19
  5.8189e+02   1.3094e-19
  5.8247e+02   1.0187e-19
  5.8305e+02   9.6160e-20
  5.8363e+02   1.0031e-19
  5.8422e+02   9.6245e-20
  5.8480e+02   9.0643e-20
  5.8539e+02   8.9534e-20
  5.8597e+02   8.3802e-20
  5.8656e+02   7.0617e-20
  5.8715e+02   5.6255e-20
  5.8773e+02   4.8933e-20
  5.8832e+02   5.0092e-20
  5.8891e+02   4.9888e-20
  5.8950e+02   4.1586e-20
  5.9009e+02   2.9425e-20
  5.9068e+02   2.1265e-20
  5.9127e+02   2.1089e-20
  5.9186e+02   2.3549e-20
  5.9245e+02   2.1172e-20
  5.9304e+02   1.4949e-20
  5.9364e+02   1.0316e-20
  5.9423e+02   9.9808e-21
  5.9482e+02   1.0318e-20
  5.9542e+02   7.1131e-21
  5.9601e+02   2.8543e-21
  5.9661e+02   7.1589e-22
  5.9721e+02   1.5927e-22
  5.9780e+02   4.0307e-23
  5.9840e+02   7.8545e-24
  5.9900e+02   9.7526e-25
  5.9960e+02   1.1620e-25
  6.0020e+02   9.2356e-26
  6.0080e+02   1.1992e-25
  6.0140e+02   1.0206e-25
  6.0200e+02   6.8531e-26
  6.0260e+02   4.9226e-26
  6.0321e+02   4.3392e-26
  6.0381e+02   5.8072e-26
  6.0441e+02   9.3552e-26
  6.0502e+02   1.1962e-25
  6.0562e+02   1.0632e-25
  6.0623e+02   6.8736e-26
  6.0683e+02   4.4515e-26
  6.0744e+02   3.9619e-26
  6.0805e+02   3.8751e-26
  6.0866e+02   3.8733e-26
  6.0927e+02   4.6484e-26
  6.0987e+02   7.3359e-26
  6.1048e+02   1.1755e-25
  6.1110e+02   1.3951e-25
  6.1171e+02   1.0809e-25
  6.1232e+02   5.6213e-26
  6.1293e+02   3.6261e-26
  6.1354e+02   8.2023e-26
  6.1416e+02   1.9042e-25
  6.1477e+02   2.6025e-25
  6.1539e+02   2.0131e-25
  6.1600e+02   9.4037e-26
  6.1662e+02   3.8613e-26
  6.1723e+02   2.6918e-26
  6.1785e+02   2.4112e-26
  6.1847e+02   3.2841e-26
  6.1909e+02   8.3525e-26
  6.1971e+02   1.8480e-25
  6.2033e+02   2.6674e-25
  6.2095e+02   2.5467e-25
  6.2157e+02   1.8910e-25
  6.2219e+02   1.4821e-25
  6.2281e+02   1.4666e-25
  6.2343e+02   1.6040e-25
  6.2406e+02   1.9061e-25
  6.2468e+02   2.4507e-25
  6.2531e+02   2.7331e-25
  6.2593e+02   2.3687e-25
  6.2656e+02   2.3290e-25
  6.2718e+02   5.0686e-25
  6.2781e+02   1.2194e-24
  6.2844e+02   1.9752e-24
  6.2907e+02   2.0310e-24
  6.2970e+02   1.4470e-24
  6.3033e+02   1.0390e-24
  6.3096e+02   1.0900e-24
  6.3159e+02   1.2994e-24
  6.3222e+02   1.4188e-24
  6.3285e+02   1.3177e-24
  6.3348e+02   1.1158e-24
  6.3412e+02   1.0532e-24
  6.3475e+02   9.7949e-25
  6.3539e+02   7.0866e-25
  6.3602e+02   4.8525e-25
  6.3666e+02   5.2568e-25
  6.3729e+02   7.6519e-25
  6.3793e+02   1.0886e-24
  6.3857e+02   1.3844e-24
  6.3921e+02   1.5799e-24
  6.3985e+02   1.8041e-24
  6.4049e+02   2.2362e-24
  6.4113e+02   2.6041e-24
  6.4177e+02   2.4691e-24
  6.4241e+02   1.9617e-24
  6.4305e+02   1.4088e-24
  6.4370e+02   1.0902e-24
  6.4434e+02   1.0714e-24
  6.4498e+02   1.2251e-24
  6.4563e+02   1.5832e-24
  6.4627e+02   2.0119e-24
  6.4692e+02   2.1781e-24
  6.4757e+02   2.0562e-24
  6.4822e+02   1.7407e-24
  6.4886e+02   1.2442e-24
  6.4951e+02   7.6253e-25
  6.5016e+02   5.0620e-25
  6.5081e+02   4.8338e-25
  6.5146e+02   6.8527e-25
  6.5211e+02   1.1349e-24
  6.5277e+02   1.6995e-24
  6.5342e+02   2.2376e-24
  6.5407e+02   2.5846e-24
  6.5473e+02   2.4522e-24
  6.5538e+02   2.1439e-24
  6.5604e+02   2.2884e-24
  6.5669e+02   3.1615e-24
  6.5735e+02   4.5920e-24
  6.5801e+02   5.7531e-24
  6.5867e+02   5.7854e-24
  6.5932e+02   5.1321e-24
  6.5998e+02   5.0567e-24
  6.6064e+02   5.1484e-24
  6.6130e+02   4.1492e-24
  6.6197e+02   2.8902e-24
  6.6263e+02   3.1537e-24
  6.6329e+02   1.2273e-23
  6.6395e+02   8.3338e-23
  6.6462e+02   3.7330e-22
  6.6528e+02   9.3922e-22
  6.6595e+02   1.3423e-21
  6.6661e+02   1.2664e-21
  6.6728e+02   1.3016e-21
  6.6795e+02   1.9523e-21
  6.6861e+02   2.9251e-21
  6.6928e+02   3.9050e-21
  6.6995e+02   4.6759e-21
  6.7062e+02   5.1559e-21
  6.7129e+02   5.7820e-21
  6.7196e+02   6.4317e-21
  6.7264e+02   6.7093e-21
  6.7331e+02   6.3348e-21
  6.7398e+02   5.3891e-21
  6.7466e+02   4.8206e-21
  6.7533e+02   4.9994e-21
  6.7601e+02   5.8404e-21
  6.7668e+02   7.5774e-21
  6.7736e+02   9.7183e-21
  6.7804e+02   1.0827e-20
  6.7871e+02   1.0596e-20
  6.7939e+02   1.0152e-20
  6.8007e+02   1.0285e-20
  6.8075e+02   1.0344e-20
  6.8143e+02   9.2269e-21
  6.8211e+02   7.5918e-21
  6.8280e+02   7.3235e-21
  6.8348e+02   9.4068e-21
  6.8416e+02   1.2852e-20
  6.8485e+02   1.5525e-20
  6.8553e+02   1.6027e-20
  6.8622e+02   1.4588e-20
  6.8690e+02   1.3016e-20
  6.8759e+02   1.2707e-20
  6.8828e+02   1.3028e-20
  6.8897e+02   1.3255e-20
  6.8966e+02   1.3820e-20
  6.9035e+02   1.4222e-20
  6.9104e+02   1.3720e-20
  6.9173e+02   1.4024e-20
  6.9242e+02   1.6048e-20
  6.9311e+02   1.7768e-20
  6.9380e+02   1.8994e-20
  6.9450e+02   2.1918e-20
  6.9519e+02   2.6021e-20
  6.9589e+02   2.8765e-20
  6.9658e+02   2.7013e-20
  6.9728e+02   1.9943e-20
  6.9798e+02   1.3945e-20
  6.9867e+02   1.4129e-20
  6.9937e+02   1.9772e-20
  7.0007e+02   2.9355e-20
  7.0077e+02   3.9686e-20
  7.0147e+02   4.9017e-20
  7.0218e+02   5.9405e-20
  7.0288e+02   6.3683e-20
  7.0358e+02   5.6050e-20
  7.0428e+02   4.5649e-20
  7.0499e+02   3.8692e-20
  7.0569e+02   3.7153e-20
  7.0640e+02   4.0841e-20
  7.0711e+02   4.7341e-20
  7.0781e+02   5.3796e-20
  7.0852e+02   5.4982e-20
  7.0923e+02   5.4742e-20
  7.0994e+02   6.4413e-20
  7.1065e+02   8.7204e-20
  7.1136e+02   1.1293e-19
  7.1207e+02   1.2591e-19
  7.1278e+02   1.2862e-19
  7.1349e+02   1.3703e-19
  7.1421e+02   1.4485e-19
  7.1492e+02   1.3523e-19
  7.1564e+02   1.1245e-19
  7.1635e+02   9.3823e-20
  7.1707e+02   8.1595e-20
  7.1779e+02   6.7951e-20
  7.1850e+02   6.3623e-20
  7.1922e+02   7.5970e-20
  7.1994e+02   8.5909e-20
  7.2066e+02   7.6565e-20
  7.2138e+02   5.8835e-20
  7.2210e+02   5.0103e-20
  7.2283e+02   5.0481e-20
  7.2355e+02   5.2014e-20
  7.2427e+02   4.7054e-20
  7.2500e+02   3.3829e-20
  7.2572e+02   2.2796e-20
  7.2645e+02   1.9915e-20
  7.2717e+02   2.2037e-20
  7.2790e+02   2.8586e-20
  7.2863e+02   3.7029e-20
  7.2936e+02   3.8806e-20
  7.3009e+02   3.3191e-20
  7.3082e+02   2.6880e-20
  7.3155e+02   2.0494e-20
  7.3228e+02   1.4057e-20
  7.3301e+02   1.1252e-20
  7.3374e+02   1.1814e-20
  7.3448e+02   1.2365e-20
  7.3521e+02   1.2095e-20
  7.3595e+02   1.2076e-20
  7.3668e+02   1.3541e-20
  7.3742e+02   1.6163e-20
  7.3816e+02   1.6697e-20
  7.3890e+02   1.4105e-20
  7.3964e+02   1.1473e-20
  7.4038e+02   1.0933e-20
  7.4112e+02   1.1999e-20
  7.4186e+02   1.3169e-20
  7.4260e+02   1.3014e-20
  7.4334e+02   1.1315e-20
  7.4408e+02   9.7807e-21
  7.4483e+02   9.5556e-21
  7.4557e+02   9.3674e-21
  7.4632e+02   8.0500e-21
  7.4707e+02   6.6335e-21
  7.4781e+02   6.2391e-21
  7.4856e+02   6.4153e-21
  7.4931e+02   6.6518e-21
  7.5006e+02   7.4773e-21
  7.5081e+02   8.7551e-21
  7.5156e+02   9.3278e-21
  7.5231e+02   8.8614e-21
  7.5306e+02   7.9781e-21
  7.5382e+02   7.2115e-21
  7.5457e+02   6.9560e-21
  7.5532e+02   7.0924e-21
  7.5608e+02   7.2118e-21
  7.5684e+02   7.5481e-21
  7.5759e+02   8.6177e-21
  7.5835e+02   1.0142e-20
  7.5911e+02   1.1587e-20
  7.5987e+02   1.3496e-20
  7.6063e+02   1.6141e-20
  7.6139e+02   1.7655e-20
  7.6215e+02   1.6601e-20
  7.6291e+02   1.5037e-20
  7.6367e+02   1.5399e-20
  7.6444e+02   1.7319e-20
  7.6520e+02   1.8565e-20
  7.6597e+02   1.8095e-20
  7.6673e+02   1.7497e-20
  7.6750e+02   1.8009e-20
  7.6827e+02   1.8866e-20
  7.6904e+02   1.9446e-20
  7.6980e+02   2.0204e-20
  7.7057e+02   2.1370e-20
  7.7135e+02   2.2567e-20
  7.7212e+02   2.3469e-20
  7.7289e+02   2.3519e-20
  7.7366e+02   2.2324e-20
  7.7444e+02   2.0761e-20
  7.7521e+02   1.9558e-20
  7.7599e+02   1.8759e-20
  7.7676e+02   1.8421e-20
  7.7754e+02   1.8152e-20
  7.7832e+02   1.7796e-20
  7.7909e+02   1.7643e-20
  7.7987e+02   1.7741e-20
  7.8065e+02   1.7975e-20
  7.8143e+02   1.8192e-20
  7.8221e+02   1.8364e-20
  7.8300e+02   1.9083e-20
  7.8378e+02   2.0290e-20
  7.8456e+02   2.1183e-20
  7.8535e+02   2.1555e-20
  7.8613e+02   2.1308e-20
  7.8692e+02   2.0201e-20
  7.8771e+02   1.8848e-20
  7.8849e+02   1.8372e-20
  7.8928e+02   1.9060e-20
  7.9007e+02   2.0351e-20
  7.9086e+02   2.1955e-20
  7.9165e+02   2.4053e-20
  7.9244e+02   2.5699e-20
  7.9324e+02   2.5437e-20
  7.9403e+02   2.3913e-20
  7.9482e+02   2.3282e-20
  7.9562e+02   2.4950e-20
  7.9641e+02   2.8453e-20
  7.9721e+02   3.1733e-20
  7.9801e+02   3.3782e-20
  7.9881e+02   3.5797e-20
  7.9961e+02   3.8909e-20
  8.0040e+02   4.2413e-20
  8.0121e+02   4.4290e-20
  8.0201e+02   4.3278e-20
  8.0281e+02   4.1240e-20
  8.0361e+02   4.1186e-20
  8.0441e+02   4.2946e-20
  8.0522e+02   4.4060e-20
  8.0602e+02   4.3612e-20
  8.0683e+02   4.3785e-20
  8.0764e+02   4.5563e-20
  8.0845e+02   4.6329e-20
  8.0925e+02   4.4960e-20
  8.1006e+02   4.2807e-20
  8.1087e+02   4.0521e-20
  8.1168e+02   3.8899e-20
  8.1250e+02   3.8358e-20
  8.1331e+02   3.7513e-20
  8.1412e+02   3.6150e-20
  8.1494e+02   3.5712e-20
  8.1575e+02   3.6386e-20
  8.1657e+02   3.6985e-20
  8.1738e+02   3.6408e-20
  8.1820e+02   3.4589e-20
  8.1902e+02   3.2623e-20
  8.1984e+02   3.1380e-20
  8.2066e+02   3.0253e-20
  8.2148e+02   2.8276e-20
  8.2230e+02   2.6127e-20
  8.2312e+02   2.5203e-20
  8.2394e+02   2.5710e-20
  8.2477e+02   2.6497e-20
  8.2559e+02   2.6301e-20
  8.2642e+02   2.5544e-20
  8.2725e+02   2.5827e-20
  8.2807e+02   2.7652e-20
  8.2890e+02   3.0577e-20
  8.2973e+02   3.4404e-20
  8.3056e+02   3.8066e-20
  8.3139e+02   3.9834e-20
  8.3222e+02   3.9445e-20
  8.3305e+02   3.7417e-20
  8.3389e+02   3.4931e-20
  8.3472e+02   3.3861e-20
  8.3556e+02   3.4107e-20
  8.3639e+02   3.4697e-20
  8.3723e+02   3.6004e-20
  8.3806e+02   3.8233e-20
  8.3890e+02   4.0956e-20
  8.3974e+02   4.3913e-20
  8.4058e+02   4.5884e-20
  8.4142e+02   4.5638e-20
  8.4226e+02   4.3900e-20
  8.4311e+02   4.2050e-20
  8.4395e+02   4.1504e-20
  8.4479e+02   4.3171e-20
  8.4564e+02   4.5698e-20
  8.4648e+02   4.7229e-20
  8.4733e+02   4.7705e-20
  8.4818e+02   4.7857e-20
  8.4902e+02   4.7893e-20
  8.4987e+02   4.8264e-20
  8.5072e+02   4.9036e-20
  8.5157e+02   4.8811e-20
  8.5243e+02   4.7288e-20
  8.5328e+02   4.5812e-20
  8.5413e+02   4.5154e-20
  8.5499e+02   4.5471e-20
  8.5584e+02   4.6806e-20
  8.5670e+02   4.8516e-20
  8.5755e+02   4.9731e-20
  8.5841e+02   5.0267e-20
  8.5927e+02   5.0159e-20
  8.6013e+02   4.9913e-20
  8.6099e+02   4.9232e-20
  8.6185e+02   4.7419e-20
  8.6271e+02   4.6013e-20
  8.6357e+02   4.6616e-20
  8.6444e+02   4.8424e-20
  8.6530e+02   5.0710e-20
  8.6617e+02   5.2750e-20
  8.6703e+02   5.3585e-20
  8.6790e+02   5.3662e-20
  8.6877e+02   5.2905e-20
  8.6964e+02   5.0659e-20
  8.7051e+02   4.8709e-20
  8.7138e+02   4.8962e-20
  8.7225e+02   5.0141e-20
  8.7312e+02   5.0134e-20
  8.7399e+02   4.8919e-20
  8.7487e+02   4.8069e-20
  8.7574e+02   4.7552e-20
  8.7662e+02   4.5477e-20
  8.7750e+02   4.2349e-20
  8.7837e+02   4.1425e-20
  8.7925e+02   4.3522e-20
  8.8013e+02   4.6158e-20
  8.8101e+02   4.8070e-20
  8.8189e+02   4.9656e-20
  8.8277e+02   5.0850e-20
  8.8366e+02   5.1080e-20
  8.8454e+02   5.0818e-20
  8.8542e+02   5.2488e-20
  8.8631e+02   5.5907e-20
  8.8720e+02   5.7928e-20
  8.8808e+02   5.8032e-20
  8.8897e+02   5.7619e-20
  8.8986e+02   5.7495e-20
  8.9075e+02   5.8390e-20
  8.9164e+02   6.1294e-20
  8.9253e+02   6.5230e-20
  8.9343e+02   6.7268e-20
  8.9432e+02   6.6724e-20
  8.9521e+02   6.5061e-20
  8.9611e+02   6.3225e-20
  8.9700e+02   6.2562e-20
  8.9790e+02   6.3064e-20
  8.9880e+02   6.1946e-20
  8.9970e+02   5.9877e-20
  9.0060e+02   6.0580e-20
  9.0150e+02   6.3284e-20
  9.0240e+02   6.4405e-20
  9.0330e+02   6.3089e-20
  9.0421e+02   6.0531e-20
  9.0511e+02   5.7766e-20
  9.0601e+02   5.5311e-20
  9.0692e+02   5.3370e-20
  9.0783e+02   5.2300e-20
  9.0874e+02   5.2128e-20
  9.0964e+02   5.2258e-20
  9.1055e+02   5.1805e-20
  9.1146e+02   5.1212e-20
  9.1238e+02   5.0994e-20
  9.1329e+02   4.9640e-20
  9.1420e+02   4.6566e-20
  9.1512e+02   4.3444e-20
  9.1603e+02   4.1556e-20
  9.1695e+02   4.0283e-20
  9.1786e+02   3.9390e-20
  9.1878e+02   3.9446e-20
  9.1970e+02   3.9414e-20
  9.2062e+02   3.8011e-20
  9.2154e+02   3.5912e-20
  9.2246e+02   3.5030e-20
  9.2339e+02   3.6676e-20
  9.2431e+02   4.0269e-20
  9.2523e+02   4.4464e-20
  9.2616e+02   4.8149e-20
  9.2708e+02   4.9413e-20
  9.2801e+02   4.7675e-20
  9.2894e+02   4.5222e-20
  9.2987e+02   4.3712e-20
  9.3080e+02   4.3498e-20
  9.3173e+02   4.5384e-20
  9.3266e+02   4.9317e-20
  9.3359e+02   5.4285e-20
  9.3453e+02   5.8398e-20
  9.3546e+02   6.0530e-20
  9.3640e+02   6.3602e-20
  9.3733e+02   7.0111e-20
  9.3827e+02   7.8355e-20
  9.3921e+02   8.7927e-20
  9.4015e+02   9.9303e-20
  9.4109e+02   1.0883e-19
  9.4203e+02   1.1445e-19
  9.4297e+02   1.2103e-19
  9.4391e+02   1.3204e-19
  9.4486e+02   1.4345e-19
  9.4580e+02   1.4956e-19
  9.4675e+02   1.5273e-19
  9.4770e+02   1.5997e-19
  9.4864e+02   1.6887e-19
  9.4959e+02   1.7115e-19
  9.5054e+02   1.6643e-19
  9.5149e+02   1.5928e-19
  9.5244e+02   1.5503e-19
  9.5340e+02   1.5776e-19
  9.5435e+02   1.6366e-19
  9.5530e+02   1.6634e-19
  9.5626e+02   1.6455e-19
  9.5722e+02   1.6165e-19
  9.5817e+02   1.6170e-19
  9.5913e+02   1.6278e-19
  9.6009e+02   1.6018e-19
  9.6105e+02   1.5306e-19
  9.6201e+02   1.4393e-19
  9.6297e+02   1.3546e-19
  9.6394e+02   1.2668e-19
  9.6490e+02   1.1739e-19
  9.6586e+02   1.1342e-19
  9.6683e+02   1.1531e-19
  9.6780e+02   1.1390e-19
  9.6877e+02   1.0969e-19
  9.6973e+02   1.1270e-19
  9.7070e+02   1.2320e-19
  9.7167e+02   1.3705e-19
  9.7265e+02   1.5496e-19
  9.7362e+02   1.7446e-19
  9.7459e+02   1.9129e-19
  9.7557e+02   2.0574e-19
  9.7654e+02   2.1882e-19
  9.7752e+02   2.3223e-19
  9.7850e+02   2.4602e-19
  9.7948e+02   2.5789e-19
  9.8045e+02   2.6734e-19
  9.8144e+02   2.7406e-19
  9.8242e+02   2.7856e-19
  9.8340e+02   2.7948e-19
  9.8438e+02   2.6803e-19
  9.8537e+02   2.4204e-19
  9.8635e+02   2.1756e-19
  9.8734e+02   2.0755e-19
  9.8833e+02   2.0628e-19
  9.8931e+02   2.0340e-19
  9.9030e+02   1.9683e-19
  9.9129e+02   1.8946e-19
  9.9228e+02   1.8441e-19
  9.9328e+02   1.8108e-19
  9.9427e+02   1.7620e-19
  9.9526e+02   1.6856e-19
  9.9626e+02   1.5799e-19
  9.9726e+02   1.4505e-19
  9.9825e+02   1.3428e-19
  9.9925e+02   1.2990e-19
  1.0003e+03   1.2923e-19
  1.0013e+03   1.2674e-19
  1.0023e+03   1.2011e-19
  1.0033e+03   1.1172e-19
  1.0043e+03   1.0640e-19
  1.0053e+03   1.0507e-19
  1.0063e+03   1.0468e-19
  1.0073e+03   1.0442e-19
  1.0083e+03   1.0558e-19
  1.0093e+03   1.0837e-19
  1.0103e+03   1.1169e-19
  1.0113e+03   1.1472e-19
  1.0123e+03   1.1833e-19
  1.0133e+03   1.2505e-19
  1.0143e+03   1.3456e-19
  1.0154e+03   1.4285e-19
  1.0164e+03   1.4861e-19
  1.0174e+03   1.5375e-19
  1.0184e+03   1.5751e-19
  1.0194e+03   1.5775e-19
  1.0204e+03   1.5757e-19
  1.0215e+03   1.6521e-19
  1.0225e+03   1.8518e-19
  1.0235e+03   2.0840e-19
  1.0245e+03   2.2071e-19
  1.0256e+03   2.2197e-19
  1.0257e+03   2.2187e-19
  1.0268e+03   2.2431e-19
  1.0278e+03   2.2452e-19
  1.0288e+03   2.1880e-19
  1.0298e+03   2.0912e-19
  1.0309e+03   1.9967e-19
  1.0319e+03   1.9337e-19
  1.0329e+03   1.8883e-19
  1.0340e+03   1.8238e-19
  1.0350e+03   1.7563e-19
  1.0360e+03   1.7415e-19
  1.0371e+03   1.7807e-19
  1.0381e+03   1.8212e-19
  1.0391e+03   1.8012e-19
  1.0402e+03   1.7126e-19
  1.0412e+03   1.6318e-19
  1.0423e+03   1.6142e-19
  1.0433e+03   1.6332e-19
  1.0444e+03   1.6574e-19
  1.0454e+03   1.6964e-19
  1.0464e+03   1.7623e-19
  1.0475e+03   1.8023e-19
  1.0485e+03   1.7482e-19
  1.0496e+03   1.6602e-19
  1.0506e+03   1.6362e-19
  1.0517e+03   1.6341e-19
  1.0527e+03   1.5706e-19
  1.0538e+03   1.4966e-19
  1.0548e+03   1.4981e-19
  1.0559e+03   1.5505e-19
  1.0570e+03   1.5856e-19
  1.0580e+03   1.5732e-19
  1.0591e+03   1.5202e-19
  1.0601e+03   1.4547e-19
  1.0612e+03   1.4082e-19
  1.0622e+03   1.3910e-19
  1.0633e+03   1.3814e-19
  1.0644e+03   1.3689e-19
  1.0654e+03   1.3421e-19
  1.0665e+03   1.2637e-19
  1.0676e+03   1.1498e-19
  1.0686e+03   1.0803e-19
  1.0697e+03   1.0895e-19
  1.0708e+03   1.1158e-19
  1.0718e+03   1.0917e-19
  1.0729e+03   1.0487e-19
  1.0740e+03   1.0118e-19
  1.0751e+03   9.5000e-20
  1.0761e+03   8.8759e-20
  1.0772e+03   8.5418e-20
  1.0783e+03   8.3123e-20
  1.0794e+03   8.1927e-20
  1.0805e+03   8.2609e-20
  1.0815e+03   8.4040e-20
  1.0826e+03   8.7527e-20
  1.0837e+03   9.2862e-20
  1.0848e+03   9.5390e-20
  1.0859e+03   9.3656e-20
  1.0870e+03   9.1480e-20
  1.0880e+03   9.1839e-20
  1.0891e+03   9.3825e-20
  1.0902e+03   9.6321e-20
  1.0913e+03   9.8622e-20
  1.0924e+03   9.7683e-20
  1.0935e+03   9.1259e-20
  1.0946e+03   8.3013e-20
  1.0957e+03   7.8154e-20
  1.0968e+03   7.7324e-20
  1.0979e+03   7.8166e-20
  1.0990e+03   7.9704e-20
  1.1001e+03   8.4249e-20
  1.1012e+03   9.1517e-20
  1.1023e+03   9.1911e-20
  1.1034e+03   8.0470e-20
  1.1045e+03   6.9485e-20
  1.1056e+03   6.8883e-20
  1.1067e+03   7.4913e-20
  1.1078e+03   8.2059e-20
  1.1089e+03   8.9403e-20
  1.1100e+03   9.6165e-20
  1.1111e+03   1.0030e-19
  1.1122e+03   1.0255e-19
  1.1133e+03   1.0582e-19
  1.1145e+03   1.1164e-19
  1.1156e+03   1.1824e-19
  1.1167e+03   1.2191e-19
  1.1178e+03   1.2492e-19
  1.1189e+03   1.3467e-19
  1.1200e+03   1.5024e-19
  1.1212e+03   1.6268e-19
  1.1223e+03   1.6786e-19
  1.1234e+03   1.7056e-19
  1.1245e+03   1.7834e-19
  1.1256e+03   1.9337e-19
  1.1268e+03   2.0383e-19
  1.1279e+03   1.9601e-19
  1.1290e+03   1.7638e-19
  1.1302e+03   1.5765e-19
  1.1313e+03   1.4502e-19
  1.1324e+03   1.4171e-19
  1.1335e+03   1.4580e-19
  1.1347e+03   1.4926e-19
  1.1358e+03   1.4638e-19
  1.1370e+03   1.3790e-19
  1.1381e+03   1.2701e-19
  1.1392e+03   1.1809e-19
  1.1404e+03   1.1497e-19
  1.1415e+03   1.1519e-19
  1.1427e+03   1.1238e-19
  1.1438e+03   1.0696e-19
  1.1449e+03   1.0323e-19
  1.1461e+03   1.0111e-19
  1.1472e+03   1.0074e-19
  1.1484e+03   1.1882e-19
  1.1495e+03   2.0844e-19
  1.1507e+03   4.0275e-19
  1.1518e+03   5.8971e-19
  1.1530e+03   7.0794e-19
  1.1541e+03   1.0760e-18
  1.1553e+03   1.9626e-18
  1.1564e+03   2.9378e-18
  1.1576e+03   3.4131e-18
  1.1588e+03   3.6125e-18
  1.1599e+03   3.9469e-18
  1.1611e+03   4.1499e-18
  1.1622e+03   4.0711e-18
  1.1634e+03   4.0966e-18
  1.1646e+03   4.3845e-18
  1.1657e+03   4.5817e-18
  1.1669e+03   4.4662e-18
  1.1681e+03   4.3058e-18
  1.1692e+03   4.2179e-18
  1.1704e+03   3.9981e-18
  1.1716e+03   3.7286e-18
  1.1727e+03   3.6632e-18
  1.1739e+03   3.7416e-18
  1.1751e+03   3.7969e-18
  1.1763e+03   3.6718e-18
  1.1774e+03   3.2954e-18
  1.1786e+03   2.8732e-18
  1.1798e+03   2.5701e-18
  1.1810e+03   2.3386e-18
  1.1821e+03   2.2158e-18
  1.1833e+03   2.2057e-18
  1.1845e+03   2.0799e-18
  1.1857e+03   1.8321e-18
  1.1869e+03   1.6374e-18
  1.1881e+03   1.5238e-18
  1.1893e+03   1.4604e-18
  1.1904e+03   1.4122e-18
  1.1916e+03   1.3928e-18
  1.1928e+03   1.4488e-18
  1.1940e+03   1.4865e-18
  1.1952e+03   1.3838e-18
  1.1964e+03   1.2171e-18
  1.1976e+03   1.1186e-18
  1.1988e+03   1.1243e-18
  1.2000e+03   1.1864e-18
  1.2012e+03   1.2232e-18
  1.2024e+03   1.2223e-18
  1.2036e+03   1.2106e-18
  1.2048e+03   1.1895e-18
  1.2060e+03   1.1640e-18
  1.2072e+03   1.1275e-18
  1.2084e+03   1.0898e-18
  1.2096e+03   1.0882e-18
  1.2108e+03   1.1167e-18
  1.2121e+03   1.1360e-18
  1.2133e+03   1.1229e-18
  1.2145e+03   1.0853e-18
  1.2157e+03   1.0514e-18
  1.2169e+03   1.0601e-18
  1.2181e+03   1.2282e-18
  1.2193e+03   1.8471e-18
  1.2206e+03   3.0978e-18
  1.2218e+03   4.6057e-18
  1.2230e+03   6.0507e-18
  1.2242e+03   7.6419e-18
  1.2255e+03   9.1767e-18
  1.2267e+03   1.0009e-17
  1.2279e+03   9.8896e-18
  1.2291e+03   8.9029e-18
  1.2304e+03   7.3862e-18
  1.2316e+03   6.2887e-18
  1.2328e+03   6.2359e-18
  1.2341e+03   6.4752e-18
  1.2353e+03   6.1878e-18
  1.2365e+03   5.7027e-18
  1.2378e+03   5.2191e-18
  1.2390e+03   4.6922e-18
  1.2402e+03   4.5210e-18
  1.2415e+03   4.7520e-18
  1.2427e+03   4.9912e-18
  1.2440e+03   5.0422e-18
  1.2452e+03   4.6537e-18
  1.2465e+03   3.6702e-18
  1.2477e+03   2.7155e-18
  1.2490e+03   2.3819e-18
  1.2502e+03   2.6122e-18
  1.2515e+03   2.9647e-18
  1.2527e+03   2.8570e-18
  1.2540e+03   2.2201e-18
  1.2552e+03   1.6813e-18
  1.2565e+03   1.6710e-18
  1.2577e+03   1.9340e-18
  1.2590e+03   2.0327e-18
  1.2602e+03   1.9370e-18
  1.2615e+03   1.7836e-18
  1.2628e+03   1.6180e-18
  1.2640e+03   1.4960e-18
  1.2653e+03   1.4295e-18
  1.2666e+03   1.5099e-18
  1.2678e+03   1.8244e-18
  1.2691e+03   2.2753e-18
  1.2704e+03   2.7039e-18
  1.2716e+03   3.0360e-18
  1.2729e+03   3.2321e-18
  1.2742e+03   3.2551e-18
  1.2754e+03   3.1473e-18
  1.2767e+03   3.0084e-18
  1.2780e+03   2.9207e-18
  1.2793e+03   2.8617e-18
  1.2806e+03   2.7876e-18
  1.2818e+03   2.7371e-18
  1.2831e+03   2.7170e-18
  1.2844e+03   2.6929e-18
  1.2857e+03   2.6238e-18
  1.2870e+03   2.4687e-18
  1.2883e+03   2.2805e-18
  1.2895e+03   2.2135e-18
  1.2908e+03   2.3022e-18
  1.2921e+03   2.4254e-18
  1.2934e+03   2.5315e-18
  1.2947e+03   2.6286e-18
  1.2960e+03   2.6542e-18
  1.2973e+03   2.5754e-18
  1.2986e+03   2.4855e-18
  1.2999e+03   2.4601e-18
  1.3012e+03   2.4435e-18
  1.3025e+03   2.3555e-18
  1.3038e+03   2.2290e-18
  1.3051e+03   2.1650e-18
  1.3064e+03   2.1842e-18
  1.3077e+03   2.2311e-18
  1.3090e+03   2.2675e-18
  1.3103e+03   2.2901e-18
  1.3116e+03   2.3207e-18
  1.3130e+03   2.3538e-18
  1.3143e+03   2.3391e-18
  1.3156e+03   2.2664e-18
  1.3169e+03   2.1968e-18
  1.3182e+03   2.2040e-18
  1.3195e+03   2.2729e-18
  1.3209e+03   2.2974e-18
  1.3222e+03   2.2290e-18
  1.3235e+03   2.1389e-18
  1.3248e+03   2.0793e-18
  1.3261e+03   2.0270e-18
  1.3275e+03   1.9622e-18
  1.3288e+03   1.8926e-18
  1.3301e+03   1.8467e-18
  1.3315e+03   1.8243e-18
  1.3328e+03   1.7900e-18
  1.3341e+03   1.7498e-18
  1.3355e+03   1.7237e-18
  1.3368e+03   1.7083e-18
  1.3381e+03   1.7035e-18
  1.3395e+03   1.7172e-18
  1.3408e+03   1.7775e-18
  1.3421e+03   1.8944e-18
  1.3435e+03   2.0213e-18
  1.3448e+03   2.0969e-18
  1.3462e+03   2.1009e-18
  1.3475e+03   2.0523e-18
  1.3489e+03   1.9827e-18
  1.3502e+03   1.9173e-18
  1.3516e+03   1.8645e-18
  1.3529e+03   1.8667e-18
  1.3543e+03   1.9313e-18
  1.3556e+03   1.9742e-18
  1.3570e+03   1.9583e-18
  1.3583e+03   1.8987e-18
  1.3597e+03   1.7863e-18
  1.3611e+03   1.6427e-18
  1.3624e+03   1.5419e-18
  1.3638e+03   1.5100e-18
  1.3651e+03   1.4894e-18
  1.3665e+03   1.4365e-18
  1.3679e+03   1.3651e-18
  1.3692e+03   1.2879e-18
  1.3706e+03   1.2088e-18
  1.3720e+03   1.1488e-18
  1.3734e+03   1.1183e-18
  1.3747e+03   1.0816e-18
  1.3761e+03   1.0074e-18
  1.3775e+03   9.4268e-19
  1.3789e+03   9.3866e-19
  1.3802e+03   9.5921e-19
  1.3816e+03   9.5859e-19
  1.3830e+03   9.4856e-19
  1.3844e+03   9.4956e-19
  1.3858e+03   9.5650e-19
  1.3872e+03   9.7032e-19
  1.3885e+03   1.0140e-18
  1.3899e+03   1.0902e-18
  1.3913e+03   1.1751e-18
  1.3927e+03   1.2446e-18
  1.3941e+03   1.2847e-18
  1.3955e+03   1.3030e-18
  1.3969e+03   1.3189e-18
  1.3983e+03   1.3524e-18
  1.3997e+03   1.4047e-18
  1.4011e+03   1.4725e-18
  1.4025e+03   1.5729e-18
  1.4039e+03   1.6608e-18
  1.4053e+03   1.6723e-18
  1.4067e+03   1.6416e-18
  1.4081e+03   1.5957e-18
  1.4095e+03   1.5214e-18
  1.4109e+03   1.4735e-18
  1.4123e+03   1.4706e-18
  1.4137e+03   1.4700e-18
  1.4152e+03   1.4881e-18
  1.4166e+03   1.5440e-18
  1.4180e+03   1.6545e-18
  1.4194e+03   1.8260e-18
  1.4208e+03   1.9948e-18
  1.4223e+03   2.1272e-18
  1.4237e+03   2.2459e-18
  1.4251e+03   2.3275e-18
  1.4265e+03   2.3156e-18
  1.4279e+03   2.2260e-18
  1.4294e+03   2.1513e-18
  1.4308e+03   2.1644e-18
  1.4322e+03   2.2308e-18
  1.4337e+03   2.2589e-18
  1.4351e+03   2.2732e-18
  1.4365e+03   2.3615e-18
  1.4380e+03   2.4643e-18
  1.4394e+03   2.4545e-18
  1.4409e+03   2.3625e-18
  1.4423e+03   2.3020e-18
  1.4437e+03   2.2936e-18
  1.4452e+03   2.2860e-18
  1.4466e+03   2.2452e-18
  1.4481e+03   2.1818e-18
  1.4495e+03   2.1230e-18
  1.4510e+03   2.0861e-18
  1.4524e+03   2.0749e-18
  1.4539e+03   2.1074e-18
  1.4553e+03   2.2159e-18
  1.4568e+03   2.4039e-18
  1.4582e+03   2.6465e-18
  1.4597e+03   2.8641e-18
  1.4612e+03   2.9323e-18
  1.4626e+03   2.8590e-18
  1.4641e+03   2.7631e-18
  1.4655e+03   2.6831e-18
  1.4670e+03   2.5976e-18
  1.4685e+03   2.5432e-18
  1.4699e+03   2.5721e-18
  1.4714e+03   2.6264e-18
  1.4729e+03   2.6680e-18
  1.4744e+03   2.9425e-18
  1.4758e+03   3.9639e-18
  1.4773e+03   6.0210e-18
  1.4788e+03   8.5806e-18
  1.4803e+03   1.0629e-17
  1.4817e+03   1.1823e-17
  1.4832e+03   1.2844e-17
  1.4847e+03   1.4605e-17
  1.4862e+03   1.7186e-17
  1.4877e+03   1.9292e-17
  1.4892e+03   1.9270e-17
  1.4907e+03   1.7388e-17
  1.4921e+03   1.5669e-17
  1.4936e+03   1.4943e-17
  1.4951e+03   1.4473e-17
  1.4966e+03   1.3954e-17
  1.4981e+03   1.3479e-17
  1.4996e+03   1.2806e-17
  1.5011e+03   1.1778e-17
  1.5026e+03   1.0814e-17
  1.5041e+03   1.0480e-17
  1.5056e+03   1.0666e-17
  1.5071e+03   1.0849e-17
  1.5086e+03   1.0637e-17
  1.5102e+03   9.8593e-18
  1.5117e+03   8.7811e-18
  1.5132e+03   7.9785e-18
  1.5147e+03   7.5676e-18
  1.5162e+03   7.0800e-18
  1.5177e+03   6.4696e-18
  1.5192e+03   6.0697e-18
  1.5208e+03   5.6569e-18
  1.5223e+03   4.8905e-18
  1.5238e+03   3.9849e-18
  1.5253e+03   3.2329e-18
  1.5268e+03   2.7076e-18
  1.5284e+03   2.4247e-18
  1.5299e+03   2.2515e-18
  1.5314e+03   2.0946e-18
  1.5330e+03   1.9589e-18
  1.5345e+03   1.8100e-18
  1.5360e+03   1.6580e-18
  1.5376e+03   1.5427e-18
  1.5391e+03   1.4766e-18
  1.5406e+03   1.4670e-18
  1.5422e+03   1.5035e-18
  1.5437e+03   1.5928e-18
  1.5453e+03   1.7391e-18
  1.5468e+03   1.8527e-18
  1.5484e+03   1.8684e-18
  1.5499e+03   1.8408e-18
  1.5515e+03   1.8379e-18
  1.5530e+03   1.8969e-18
  1.5546e+03   2.0131e-18
  1.5561e+03   2.1246e-18
  1.5577e+03   2.2021e-18
  1.5592e+03   2.2525e-18
  1.5608e+03   2.2237e-18
  1.5624e+03   2.1040e-18
  1.5639e+03   1.9893e-18
  1.5655e+03   1.9360e-18
  1.5670e+03   1.9145e-18
  1.5686e+03   1.8816e-18
  1.5702e+03   1.8185e-18
  1.5718e+03   1.7660e-18
  1.5733e+03   1.7553e-18
  1.5749e+03   1.7351e-18
  1.5765e+03   1.6662e-18
  1.5780e+03   1.5780e-18
  1.5796e+03   1.5018e-18
  1.5812e+03   1.4273e-18
  1.5828e+03   1.3426e-18
  1.5844e+03   1.2605e-18
  1.5860e+03   1.1877e-18
  1.5875e+03   1.1319e-18
  1.5891e+03   1.1134e-18
  1.5907e+03   1.1457e-18
  1.5923e+03   1.1937e-18
  1.5939e+03   1.1962e-18
  1.5955e+03   1.1818e-18
  1.5971e+03   1.2397e-18
  1.5987e+03   1.3646e-18
  1.6003e+03   1.4719e-18
  1.6019e+03   1.5142e-18
  1.6035e+03   1.5237e-18
  1.6051e+03   1.5338e-18
  1.6067e+03   1.5122e-18
  1.6083e+03   1.4673e-18
  1.6099e+03   1.5047e-18
  1.6115e+03   1.6399e-18
  1.6131e+03   1.7273e-18
  1.6147e+03   1.7002e-18
  1.6164e+03   1.6557e-18
  1.6180e+03   1.6632e-18
  1.6196e+03   1.6856e-18
  1.6212e+03   1.6785e-18
  1.6228e+03   1.6692e-18
  1.6245e+03   1.7051e-18
  1.6261e+03   1.7822e-18
  1.6277e+03   1.8528e-18
  1.6293e+03   1.8822e-18
  1.6310e+03   1.8775e-18
  1.6326e+03   1.8197e-18
  1.6342e+03   1.6950e-18
  1.6359e+03   1.5629e-18
  1.6375e+03   1.4816e-18
  1.6391e+03   1.4383e-18
  1.6408e+03   1.4124e-18
  1.6424e+03   1.4071e-18
  1.6441e+03   1.4281e-18
  1.6457e+03   1.4801e-18
  1.6473e+03   1.5292e-18
  1.6490e+03   1.5323e-18
  1.6506e+03   1.4806e-18
  1.6523e+03   1.3871e-18
  1.6539e+03   1.2958e-18
  1.6556e+03   1.2420e-18
  1.6573e+03   1.2115e-18
  1.6589e+03   1.1780e-18
  1.6606e+03   1.1315e-18
  1.6622e+03   1.0859e-18
  1.6639e+03   1.1170e-18
  1.6656e+03   1.2468e-18
  1.6672e+03   1.3666e-18
  1.6689e+03   1.4246e-18
  1.6706e+03   1.4920e-18
  1.6722e+03   1.6092e-18
  1.6739e+03   1.7632e-18
  1.6756e+03   1.9263e-18
  1.6773e+03   2.0293e-18
  1.6789e+03   2.0318e-18
  1.6806e+03   2.0315e-18
  1.6823e+03   2.1309e-18
  1.6840e+03   2.3057e-18
  1.6857e+03   2.5208e-18
  1.6873e+03   2.7159e-18
  1.6890e+03   2.7815e-18
  1.6907e+03   2.7468e-18
  1.6924e+03   2.7480e-18
  1.6941e+03   2.8271e-18
  1.6958e+03   2.8994e-18
  1.6975e+03   2.8959e-18
  1.6992e+03   2.8610e-18
  1.7009e+03   2.8487e-18
  1.7026e+03   2.8763e-18
  1.7043e+03   2.9192e-18
  1.7060e+03   2.9307e-18
  1.7077e+03   2.9118e-18
  1.7094e+03   2.8787e-18
  1.7111e+03   2.8346e-18
  1.7128e+03   2.8215e-18
  1.7145e+03   2.8794e-18
  1.7163e+03   3.0057e-18
  1.7180e+03   3.1596e-18
  1.7197e+03   3.2624e-18
  1.7214e+03   3.2880e-18
  1.7231e+03   3.3005e-18
  1.7249e+03   3.3844e-18
  1.7266e+03   3.6511e-18
  1.7283e+03   4.2076e-18
  1.7300e+03   5.0042e-18
  1.7318e+03   5.7916e-18
  1.7335e+03   6.3553e-18
  1.7352e+03   6.8081e-18
  1.7370e+03   7.3181e-18
  1.7387e+03   7.7161e-18
  1.7404e+03   7.8648e-18
  1.7422e+03   8.1311e-18
  1.7439e+03   8.8190e-18
  1.7457e+03   9.4694e-18
  1.7474e+03   9.5912e-18
  1.7492e+03   9.3926e-18
  1.7509e+03   9.3240e-18
  1.7527e+03   9.5193e-18
  1.7544e+03   9.8334e-18
  1.7562e+03   1.0166e-17
  1.7579e+03   1.0411e-17
  1.7597e+03   1.0559e-17
  1.7614e+03   1.0814e-17
  1.7632e+03   1.1198e-17
  1.7650e+03   1.1369e-17
  1.7667e+03   1.1192e-17
  1.7685e+03   1.0964e-17
  1.7703e+03   1.0527e-17
  1.7720e+03   9.5843e-18
  1.7738e+03   8.6428e-18
  1.7756e+03   8.2368e-18
  1.7774e+03   8.0892e-18
  1.7791e+03   7.7894e-18
  1.7809e+03   7.4363e-18
  1.7827e+03   7.2193e-18
  1.7845e+03   7.0062e-18
  1.7863e+03   6.6466e-18
  1.7881e+03   6.2103e-18
  1.7898e+03   5.9071e-18
  1.7916e+03   5.8188e-18
  1.7934e+03   5.8561e-18
  1.7952e+03   5.8938e-18
  1.7970e+03   6.0413e-18
  1.7988e+03   6.4701e-18
  1.8006e+03   6.8365e-18
  1.8024e+03   6.7239e-18
  1.8042e+03   6.3170e-18
  1.8060e+03   6.0007e-18
  1.8078e+03   5.8486e-18
  1.8096e+03   5.7822e-18
  1.8114e+03   5.7667e-18
  1.8132e+03   5.7658e-18
  1.8151e+03   5.6432e-18
  1.8169e+03   5.4498e-18
  1.8187e+03   5.5385e-18
  1.8205e+03   6.0532e-18
  1.8223e+03   6.8705e-18
  1.8242e+03   7.7452e-18
  1.8260e+03   8.3734e-18
  1.8278e+03   8.6342e-18
  1.8296e+03   8.6606e-18
  1.8315e+03   8.6733e-18
  1.8333e+03   8.7595e-18
  1.8351e+03   8.9280e-18
  1.8370e+03   9.1432e-18
  1.8388e+03   9.2752e-18
  1.8406e+03   9.2454e-18
  1.8425e+03   9.0070e-18
  1.8443e+03   8.6639e-18
  1.8462e+03   8.3597e-18
  1.8480e+03   8.2207e-18
  1.8499e+03   8.3086e-18
  1.8517e+03   8.3262e-18
  1.8536e+03   8.0092e-18
  1.8554e+03   7.6370e-18
  1.8573e+03   7.5498e-18
  1.8591e+03   7.6866e-18
  1.8610e+03   7.8664e-18
  1.8628e+03   7.9945e-18
  1.8647e+03   8.0089e-18
  1.8666e+03   7.9045e-18
  1.8684e+03   7.7286e-18
  1.8703e+03   7.6148e-18
  1.8722e+03   7.7070e-18
  1.8741e+03   8.0339e-18
  1.8759e+03   8.5451e-18
  1.8778e+03   9.0558e-18
  1.8797e+03   9.4629e-18
  1.8816e+03   9.9013e-18
  1.8834e+03   1.0349e-17
  1.8853e+03   1.0728e-17
  1.8872e+03   1.1109e-17
  1.8891e+03   1.1491e-17
  1.8910e+03   1.1858e-17
  1.8929e+03   1.2136e-17
  1.8948e+03   1.2132e-17
  1.8967e+03   1.1857e-17
  1.8986e+03   1.1634e-17
  1.9005e+03   1.1687e-17
  1.9024e+03   1.1901e-17
  1.9043e+03   1.1905e-17
  1.9062e+03   1.1555e-17
  1.9081e+03   1.1144e-17
  1.9100e+03   1.0830e-17
  1.9119e+03   1.0673e-17
  1.9138e+03   1.0865e-17
  1.9157e+03   1.1285e-17
  1.9176e+03   1.1491e-17
  1.9196e+03   1.1360e-17
  1.9215e+03   1.1218e-17
  1.9234e+03   1.1366e-17
  1.9253e+03   1.1656e-17
  1.9272e+03   1.1820e-17
  1.9292e+03   1.1977e-17
  1.9311e+03   1.2334e-17
  1.9330e+03   1.2580e-17
  1.9350e+03   1.2499e-17
  1.9369e+03   1.2681e-17
  1.9388e+03   1.3375e-17
  1.9408e+03   1.3914e-17
  1.9427e+03   1.3882e-17
  1.9447e+03   1.3392e-17
  1.9466e+03   1.2582e-17
  1.9485e+03   1.1644e-17
  1.9505e+03   1.0853e-17
  1.9524e+03   1.0428e-17
  1.9544e+03   1.0369e-17
  1.9564e+03   1.0460e-17
  1.9583e+03   1.0648e-17
  1.9603e+03   1.0822e-17
  1.9622e+03   1.0818e-17
  1.9642e+03   1.0814e-17
  1.9662e+03   1.0820e-17
  1.9681e+03   1.0563e-17
  1.9701e+03   1.0098e-17
  1.9721e+03   9.6923e-18
  1.9740e+03   9.4672e-18
  1.9760e+03   9.3717e-18
  1.9780e+03   9.3703e-18
  1.9800e+03   9.4748e-18
  1.9819e+03   9.4894e-18
  1.9839e+03   9.3025e-18
  1.9859e+03   9.0776e-18
  1.9879e+03   8.8661e-18
  1.9899e+03   8.7250e-18
  1.9919e+03   8.9103e-18
  1.9939e+03   9.4591e-18
  1.9959e+03   1.0047e-17
  1.9978e+03   1.0286e-17
  1.9998e+03   1.0178e-17
  2.0018e+03   1.0086e-17
  2.0038e+03   1.0190e-17
  2.0059e+03   1.0591e-17
  2.0079e+03   1.1439e-17
  2.0099e+03   1.2507e-17
  2.0119e+03   1.3325e-17
  2.0139e+03   1.3609e-17
  2.0159e+03   1.3530e-17
  2.0179e+03   1.3528e-17
  2.0199e+03   1.3530e-17
  2.0220e+03   1.3364e-17
  2.0240e+03   1.3308e-17
  2.0260e+03   1.3300e-17
  2.0280e+03   1.3130e-17
  2.0301e+03   1.3162e-17
  2.0321e+03   1.3722e-17
  2.0341e+03   1.4756e-17
  2.0362e+03   1.6068e-17
  2.0382e+03   1.7016e-17
  2.0402e+03   1.7117e-17
  2.0423e+03   1.6981e-17
  2.0443e+03   1.7480e-17
  2.0464e+03   1.8748e-17
  2.0484e+03   2.0454e-17
  2.0504e+03   2.2089e-17
  2.0525e+03   2.2920e-17
  2.0546e+03   2.2506e-17
  2.0566e+03   2.1563e-17
  2.0587e+03   2.1078e-17
  2.0607e+03   2.1077e-17
  2.0628e+03   2.1041e-17
  2.0648e+03   2.0615e-17
  2.0669e+03   1.9989e-17
  2.0690e+03   1.9502e-17
  2.0710e+03   1.9082e-17
  2.0731e+03   1.8768e-17
  2.0752e+03   1.8799e-17
  2.0773e+03   1.9233e-17
  2.0793e+03   1.9848e-17
  2.0814e+03   2.0390e-17
  2.0835e+03   2.1280e-17
  2.0856e+03   2.3196e-17
  2.0877e+03   2.6154e-17
  2.0898e+03   2.9171e-17
  2.0918e+03   3.0514e-17
  2.0939e+03   2.9928e-17
  2.0960e+03   2.9199e-17
  2.0981e+03   2.8907e-17
  2.1002e+03   2.7969e-17
  2.1023e+03   2.6351e-17
  2.1044e+03   2.5059e-17
  2.1065e+03   2.4389e-17
  2.1086e+03   2.4099e-17
  2.1108e+03   2.4211e-17
  2.1129e+03   2.4612e-17
  2.1150e+03   2.4719e-17
  2.1171e+03   2.4609e-17
  2.1192e+03   2.5164e-17
  2.1213e+03   2.6419e-17
  2.1234e+03   2.7975e-17
  2.1256e+03   3.0143e-17
  2.1277e+03   3.2792e-17
  2.1298e+03   3.4405e-17
  2.1320e+03   3.3734e-17
  2.1341e+03   3.1597e-17
  2.1362e+03   2.9787e-17
  2.1384e+03   2.8858e-17
  2.1405e+03   2.8285e-17
  2.1426e+03   2.7670e-17
  2.1448e+03   2.6758e-17
  2.1469e+03   2.5811e-17
  2.1491e+03   2.5446e-17
  2.1512e+03   2.5560e-17
  2.1534e+03   2.6474e-17
  2.1555e+03   2.8923e-17
  2.1577e+03   3.1686e-17
  2.1598e+03   3.2411e-17
  2.1620e+03   3.0975e-17
  2.1642e+03   2.9767e-17
  2.1663e+03   3.0190e-17
  2.1685e+03   3.1272e-17
  2.1707e+03   3.1965e-17
  2.1728e+03   3.2110e-17
  2.1750e+03   3.1594e-17
  2.1772e+03   3.0277e-17
  2.1794e+03   2.9016e-17
  2.1815e+03   2.8780e-17
  2.1837e+03   2.9409e-17
  2.1859e+03   3.0940e-17
  2.1881e+03   3.3362e-17
  2.1903e+03   3.5588e-17
  2.1925e+03   3.7564e-17
  2.1947e+03   4.1042e-17
  2.1968e+03   4.7713e-17
  2.1990e+03   5.7445e-17
  2.2012e+03   6.6689e-17
  2.2034e+03   7.1581e-17
  2.2056e+03   7.2793e-17
  2.2079e+03   7.3865e-17
  2.2101e+03   7.5517e-17
  2.2123e+03   7.5285e-17
  2.2145e+03   7.3485e-17
  2.2167e+03   7.2591e-17
  2.2189e+03   7.1998e-17
  2.2211e+03   6.9726e-17
  2.2234e+03   6.6551e-17
  2.2256e+03   6.4751e-17
  2.2278e+03   6.4748e-17
  2.2300e+03   6.5707e-17
  2.2323e+03   6.6994e-17
  2.2345e+03   6.7234e-17
  2.2367e+03   6.5697e-17
  2.2390e+03   6.3744e-17
  2.2412e+03   6.2599e-17
  2.2434e+03   6.2169e-17
  2.2457e+03   6.2188e-17
  2.2479e+03   6.1584e-17
  2.2502e+03   5.9104e-17
  2.2524e+03   5.6400e-17
  2.2547e+03   5.5659e-17
  2.2569e+03   5.6830e-17
  2.2592e+03   5.9341e-17
  2.2615e+03   6.2321e-17
  2.2637e+03   6.4371e-17
  2.2660e+03   6.4905e-17
  2.2682e+03   6.4693e-17
  2.2705e+03   6.5040e-17
  2.2728e+03   6.7025e-17
  2.2751e+03   7.0301e-17
  2.2773e+03   7.3228e-17
  2.2796e+03   7.4808e-17
  2.2819e+03   7.4591e-17
  2.2842e+03   7.2054e-17
  2.2865e+03   6.8657e-17
  2.2887e+03   6.6677e-17
  2.2910e+03   6.6214e-17
  2.2933e+03   6.6633e-17
  2.2956e+03   6.6434e-17
  2.2979e+03   6.4555e-17
  2.3002e+03   6.2323e-17
  2.3025e+03   6.0224e-17
  2.3048e+03   5.8119e-17
  2.3071e+03   5.8111e-17
  2.3094e+03   6.1623e-17
  2.3117e+03   6.5827e-17
  2.3140e+03   6.7470e-17
  2.3164e+03   6.6902e-17
  2.3187e+03   6.6060e-17
  2.3210e+03   6.4944e-17
  2.3233e+03   6.2352e-17
  2.3256e+03   5.9046e-17
  2.3280e+03   5.7905e-17
  2.3303e+03   5.9755e-17
  2.3326e+03   6.1769e-17
  2.3350e+03   6.1802e-17
  2.3373e+03   6.0216e-17
  2.3396e+03   5.7504e-17
  2.3420e+03   5.4583e-17
  2.3443e+03   5.3420e-17
  2.3467e+03   5.4592e-17
  2.3490e+03   5.6455e-17
  2.3513e+03   5.7371e-17
  2.3537e+03   5.7108e-17
  2.3561e+03   5.7041e-17
  2.3584e+03   5.8618e-17
  2.3608e+03   6.1419e-17
  2.3631e+03   6.4030e-17
  2.3655e+03   6.5145e-17
  2.3679e+03   6.4594e-17
  2.3702e+03   6.4116e-17
  2.3726e+03   6.4657e-17
  2.3750e+03   6.3979e-17
  2.3773e+03   6.0954e-17
  2.3797e+03   5.8620e-17
  2.3821e+03   5.8758e-17
  2.3845e+03   5.9508e-17
  2.3869e+03   5.9101e-17
  2.3893e+03   5.8323e-17
  2.3916e+03   5.7913e-17
  2.3940e+03   5.7030e-17
  2.3964e+03   5.5766e-17
  2.3988e+03   5.5057e-17
  2.4012e+03   5.4585e-17
  2.4036e+03   5.3799e-17
  2.4060e+03   5.3151e-17
  2.4084e+03   5.3627e-17
  2.4108e+03   5.5418e-17
  2.4133e+03   5.7633e-17
  2.4157e+03   5.9128e-17
  2.4181e+03   5.9119e-17
  2.4205e+03   5.8342e-17
  2.4229e+03   5.8208e-17
  2.4253e+03   5.8820e-17
  2.4278e+03   5.9401e-17
  2.4302e+03   5.9662e-17
  2.4326e+03   5.9233e-17
  2.4351e+03   5.7970e-17
  2.4375e+03   5.7256e-17
  2.4399e+03   5.8001e-17
  2.4424e+03   5.9254e-17
  2.4448e+03   5.9877e-17
  2.4473e+03   5.9403e-17
  2.4497e+03   5.6805e-17
  2.4522e+03   5.1827e-17
  2.4546e+03   4.7106e-17
  2.4571e+03   4.5237e-17
  2.4595e+03   4.6227e-17
  2.4620e+03   4.8698e-17
  2.4644e+03   5.1844e-17
  2.4669e+03   5.6776e-17
  2.4694e+03   6.4842e-17
  2.4718e+03   7.3967e-17
  2.4743e+03   8.0699e-17
  2.4768e+03   8.3588e-17
  2.4793e+03   8.2478e-17
  2.4817e+03   7.8375e-17
  2.4842e+03   7.3874e-17
  2.4867e+03   7.1095e-17
  2.4892e+03   7.0293e-17
  2.4917e+03   7.1257e-17
  2.4942e+03   7.2927e-17
  2.4967e+03   7.2099e-17
  2.4992e+03   6.7599e-17
  2.5017e+03   6.2995e-17
  2.5042e+03   6.1251e-17
  2.5067e+03   6.1278e-17
  2.5092e+03   6.2324e-17
  2.5117e+03   6.4175e-17
  2.5142e+03   6.5665e-17
  2.5167e+03   6.7963e-17
  2.5192e+03   7.2313e-17
  2.5218e+03   7.6423e-17
  2.5243e+03   7.7606e-17
  2.5268e+03   7.6235e-17
  2.5293e+03   7.4070e-17
  2.5319e+03   7.1734e-17
  2.5344e+03   6.9805e-17
  2.5369e+03   6.9093e-17
  2.5395e+03   6.9619e-17
  2.5420e+03   7.1672e-17
  2.5445e+03   7.6372e-17
  2.5471e+03   8.5652e-17
  2.5496e+03   9.9806e-17
  2.5522e+03   1.1439e-16
  2.5547e+03   1.2462e-16
  2.5573e+03   1.2993e-16
  2.5598e+03   1.3208e-16
  2.5624e+03   1.3182e-16
  2.5650e+03   1.2952e-16
  2.5675e+03   1.2681e-16
  2.5701e+03   1.2504e-16
  2.5727e+03   1.2393e-16
  2.5752e+03   1.2221e-16
  2.5778e+03   1.1970e-16
  2.5804e+03   1.1782e-16
  2.5830e+03   1.1815e-16
  2.5856e+03   1.2255e-16
  2.5881e+03   1.3360e-16
  2.5907e+03   1.5235e-16
  2.5933e+03   1.7472e-16
  2.5959e+03   1.9226e-16
  2.5985e+03   2.0137e-16
  2.6011e+03   2.0464e-16
  2.6037e+03   2.0415e-16
  2.6063e+03   2.0285e-16
  2.6089e+03   2.0486e-16
  2.6115e+03   2.1136e-16
  2.6141e+03   2.1748e-16
  2.6168e+03   2.1687e-16
  2.6194e+03   2.0915e-16
  2.6220e+03   1.9795e-16
  2.6246e+03   1.8679e-16
  2.6272e+03   1.7716e-16
  2.6299e+03   1.6659e-16
  2.6325e+03   1.5437e-16
  2.6351e+03   1.4456e-16
  2.6378e+03   1.3824e-16
  2.6404e+03   1.3223e-16
  2.6430e+03   1.2548e-16
  2.6457e+03   1.1898e-16
  2.6483e+03   1.1300e-16
  2.6510e+03   1.0690e-16
  2.6536e+03   1.0061e-16
  2.6563e+03   9.4913e-17
  2.6589e+03   9.0924e-17
  2.6616e+03   8.9416e-17
  2.6643e+03   9.0420e-17
  2.6669e+03   9.4797e-17
  2.6696e+03   1.0252e-16
  2.6723e+03   1.1099e-16
  2.6749e+03   1.1769e-16
  2.6776e+03   1.2107e-16
  2.6803e+03   1.2231e-16
  2.6830e+03   1.2488e-16
  2.6857e+03   1.2901e-16
  2.6883e+03   1.3206e-16
  2.6910e+03   1.3353e-16
  2.6937e+03   1.3633e-16
  2.6964e+03   1.4415e-16
  2.6991e+03   1.5808e-16
  2.7018e+03   1.7723e-16
  2.7045e+03   2.0014e-16
  2.7072e+03   2.2289e-16
  2.7099e+03   2.4092e-16
  2.7126e+03   2.5440e-16
  2.7153e+03   2.6591e-16
  2.7181e+03   2.7699e-16
  2.7208e+03   2.8853e-16
  2.7235e+03   2.9985e-16
  2.7262e+03   3.1019e-16
  2.7289e+03   3.1979e-16
  2.7317e+03   3.2859e-16
  2.7344e+03   3.3477e-16
  2.7371e+03   3.3606e-16
  2.7399e+03   3.3183e-16
  2.7426e+03   3.2209e-16
  2.7454e+03   3.0757e-16
  2.7481e+03   2.9279e-16
  2.7509e+03   2.8246e-16
  2.7536e+03   2.7745e-16
  2.7564e+03   2.7536e-16
  2.7591e+03   2.7234e-16
  2.7619e+03   2.6812e-16
  2.7646e+03   2.6425e-16
  2.7674e+03   2.6024e-16
  2.7702e+03   2.5560e-16
  2.7729e+03   2.4908e-16
  2.7757e+03   2.3859e-16
  2.7785e+03   2.2508e-16
  2.7813e+03   2.1206e-16
  2.7840e+03   2.0062e-16
  2.7868e+03   1.8987e-16
  2.7896e+03   1.8132e-16
  2.7924e+03   1.7754e-16
  2.7952e+03   1.7914e-16
  2.7980e+03   1.8484e-16
  2.8008e+03   1.9198e-16
  2.8036e+03   1.9675e-16
  2.8064e+03   1.9876e-16
  2.8092e+03   2.0096e-16
  2.8120e+03   2.0422e-16
  2.8148e+03   2.0677e-16
  2.8176e+03   2.0688e-16
  2.8205e+03   2.0518e-16
  2.8233e+03   2.0565e-16
  2.8261e+03   2.0968e-16
  2.8289e+03   2.1246e-16
  2.8318e+03   2.1020e-16
  2.8346e+03   2.0399e-16
  2.8374e+03   1.9656e-16
  2.8403e+03   1.9063e-16
  2.8431e+03   1.8687e-16
  2.8459e+03   1.8411e-16
  2.8488e+03   1.8129e-16
  2.8516e+03   1.7654e-16
  2.8521e+03   1.6824e-16
  2.8550e+03   1.5843e-16
  2.8578e+03   1.5042e-16
  2.8607e+03   1.4501e-16
  2.8636e+03   1.4062e-16
  2.8664e+03   1.3548e-16
  2.8693e+03   1.2934e-16
  2.8722e+03   1.2292e-16
  2.8750e+03   1.1742e-16
  2.8779e+03   1.1285e-16
  2.8808e+03   1.0851e-16
  2.8837e+03   1.0472e-16
  2.8866e+03   1.0136e-16
  2.8894e+03   1.0003e-16
  2.8923e+03   1.0362e-16
  2.8952e+03   1.1036e-16
  2.8981e+03   1.1693e-16
  2.9010e+03   1.2259e-16
  2.9039e+03   1.2641e-16
  2.9068e+03   1.2812e-16
  2.9097e+03   1.2985e-16
  2.9126e+03   1.3330e-16
  2.9156e+03   1.3940e-16
  2.9185e+03   1.4660e-16
  2.9214e+03   1.5116e-16
  2.9243e+03   1.5324e-16
  2.9272e+03   1.5718e-16
  2.9302e+03   1.6697e-16
  2.9331e+03   1.8355e-16
  2.9360e+03   2.0405e-16
  2.9390e+03   2.2408e-16
  2.9419e+03   2.4152e-16
  2.9448e+03   2.5631e-16
  2.9478e+03   2.6868e-16
  2.9507e+03   2.7927e-16
  2.9537e+03   2.8838e-16
  2.9566e+03   2.9421e-16
  2.9596e+03   2.9596e-16
  2.9626e+03   2.9517e-16
  2.9655e+03   2.9346e-16
  2.9685e+03   2.9343e-16
  2.9714e+03   2.9633e-16
  2.9744e+03   2.9972e-16
  2.9774e+03   3.0150e-16
  2.9804e+03   3.0419e-16
  2.9834e+03   3.0980e-16
  2.9863e+03   3.1551e-16
  2.9893e+03   3.1994e-16
  2.9923e+03   3.2446e-16
  2.9953e+03   3.3016e-16
  2.9983e+03   3.3770e-16
  3.0013e+03   3.4699e-16
  3.0043e+03   3.5789e-16
  3.0073e+03   3.7182e-16
  3.0103e+03   3.8917e-16
  3.0133e+03   4.0751e-16
  3.0163e+03   4.2480e-16
  3.0193e+03   4.4269e-16
  3.0224e+03   4.6395e-16
  3.0254e+03   4.8820e-16
  3.0284e+03   5.1225e-16
  3.0314e+03   5.3242e-16
  3.0345e+03   5.4875e-16
  3.0375e+03   5.6342e-16
  3.0405e+03   5.7565e-16
  3.0436e+03   5.8386e-16
  3.0466e+03   5.8864e-16
  3.0497e+03   5.8945e-16
  3.0527e+03   5.8313e-16
  3.0558e+03   5.6604e-16
  3.0588e+03   5.3847e-16
  3.0619e+03   5.0667e-16
  3.0650e+03   4.7570e-16
  3.0680e+03   4.4589e-16
  3.0711e+03   4.1714e-16
  3.0742e+03   3.9020e-16
  3.0772e+03   3.6437e-16
  3.0803e+03   3.3886e-16
  3.0834e+03   3.1350e-16
  3.0865e+03   2.8767e-16
  3.0896e+03   2.6399e-16
  3.0927e+03   2.4755e-16
  3.0957e+03   2.4063e-16
  3.0988e+03   2.4351e-16
  3.1019e+03   2.5239e-16
  3.1050e+03   2.5682e-16
  3.1081e+03   2.5148e-16
  3.1113e+03   2.4359e-16
  3.1144e+03   2.4055e-16
  3.1175e+03   2.4137e-16
  3.1206e+03   2.4103e-16
  3.1237e+03   2.3669e-16
  3.1268e+03   2.2989e-16
  3.1300e+03   2.2348e-16
  3.1331e+03   2.2075e-16
  3.1362e+03   2.2561e-16
  3.1394e+03   2.3857e-16
  3.1425e+03   2.5635e-16
  3.1457e+03   2.7455e-16
  3.1488e+03   2.8686e-16
  3.1519e+03   2.8848e-16
  3.1551e+03   2.8249e-16
  3.1583e+03   2.7759e-16
  3.1614e+03   2.8048e-16
  3.1646e+03   2.9017e-16
  3.1677e+03   2.9857e-16
  3.1709e+03   2.9671e-16
  3.1741e+03   2.8406e-16
  3.1772e+03   2.6937e-16
  3.1804e+03   2.6113e-16
  3.1836e+03   2.6177e-16
  3.1868e+03   2.6765e-16
  3.1900e+03   2.7314e-16
  3.1932e+03   2.7789e-16
  3.1964e+03   2.8456e-16
  3.1996e+03   2.9160e-16
  3.2028e+03   2.9725e-16
  3.2060e+03   3.0437e-16
  3.2092e+03   3.1550e-16
  3.2124e+03   3.3030e-16
  3.2156e+03   3.4903e-16
  3.2188e+03   3.7244e-16
  3.2220e+03   4.0286e-16
  3.2252e+03   4.4250e-16
  3.2285e+03   4.8889e-16
  3.2317e+03   5.3987e-16
  3.2349e+03   5.9750e-16
  3.2382e+03   6.6055e-16
  3.2414e+03   7.2275e-16
  3.2446e+03   7.8272e-16
  3.2479e+03   8.4445e-16
  3.2511e+03   9.0897e-16
  3.2544e+03   9.7553e-16
  3.2576e+03   1.0436e-15
  3.2609e+03   1.1100e-15
  3.2642e+03   1.1709e-15
  3.2674e+03   1.2269e-15
  3.2707e+03   1.2765e-15
  3.2740e+03   1.3162e-15
  3.2772e+03   1.3490e-15
  3.2805e+03   1.3765e-15
  3.2838e+03   1.3904e-15
  3.2871e+03   1.3865e-15
  3.2904e+03   1.3686e-15
  3.2937e+03   1.3362e-15
  3.2969e+03   1.2840e-15
  3.3002e+03   1.2104e-15
  3.3035e+03   1.1209e-15
  3.3068e+03   1.0257e-15
  3.3102e+03   9.3338e-16
  3.3135e+03   8.4755e-16
  3.3168e+03   7.6845e-16
  3.3201e+03   6.9666e-16
  3.3234e+03   6.3311e-16
  3.3267e+03   5.7633e-16
  3.3301e+03   5.2273e-16
  3.3334e+03   4.7055e-16
  3.3367e+03   4.2135e-16
  3.3401e+03   3.7830e-16
  3.3434e+03   3.4428e-16
  3.3468e+03   3.1889e-16
  3.3501e+03   3.0057e-16
  3.3534e+03   2.9091e-16
  3.3568e+03   2.9145e-16
  3.3602e+03   2.9909e-16
  3.3635e+03   3.0650e-16
  3.3669e+03   3.0668e-16
  3.3702e+03   2.9900e-16
  3.3736e+03   2.8903e-16
  3.3770e+03   2.8135e-16
  3.3804e+03   2.7861e-16
  3.3837e+03   2.8146e-16
  3.3871e+03   2.8598e-16
  3.3905e+03   2.9006e-16
  3.3939e+03   2.9693e-16
  3.3973e+03   3.0859e-16
  3.4007e+03   3.2270e-16
  3.4041e+03   3.3620e-16
  3.4075e+03   3.4737e-16
  3.4109e+03   3.5532e-16
  3.4143e+03   3.6045e-16
  3.4177e+03   3.6483e-16
  3.4212e+03   3.7275e-16
  3.4246e+03   3.8601e-16
  3.4280e+03   4.0158e-16
  3.4314e+03   4.1852e-16
  3.4349e+03   4.4120e-16
  3.4383e+03   4.7423e-16
  3.4417e+03   5.1754e-16
  3.4452e+03   5.6476e-16
  3.4486e+03   6.0752e-16
  3.4521e+03   6.4035e-16
  3.4555e+03   6.5880e-16
  3.4590e+03   6.5959e-16
  3.4624e+03   6.4598e-16
  3.4659e+03   6.2619e-16
  3.4694e+03   6.0673e-16
  3.4728e+03   5.9348e-16
  3.4763e+03   5.8858e-16
  3.4798e+03   5.8967e-16
  3.4833e+03   5.9677e-16
  3.4867e+03   6.1198e-16
  3.4902e+03   6.3239e-16
  3.4937e+03   6.4891e-16
  3.4972e+03   6.5544e-16
  3.5007e+03   6.5433e-16
  3.5042e+03   6.4997e-16
  3.5077e+03   6.4418e-16
  3.5112e+03   6.3898e-16
  3.5147e+03   6.3812e-16
  3.5183e+03   6.4453e-16
  3.5218e+03   6.5732e-16
  3.5253e+03   6.7373e-16
  3.5288e+03   6.9422e-16
  3.5323e+03   7.2029e-16
  3.5359e+03   7.5105e-16
  3.5394e+03   7.8529e-16
  3.5430e+03   8.2109e-16
  3.5465e+03   8.5414e-16
  3.5500e+03   8.8326e-16
  3.5536e+03   9.1293e-16
  3.5571e+03   9.4398e-16
  3.5607e+03   9.7100e-16
  3.5643e+03   9.8963e-16
  3.5678e+03   1.0049e-15
  3.5714e+03   1.0267e-15
  3.5750e+03   1.0582e-15
  3.5785e+03   1.0946e-15
  3.5821e+03   1.1308e-15
  3.5857e+03   1.1654e-15
  3.5893e+03   1.1999e-15
  3.5929e+03   1.2291e-15
  3.5965e+03   1.2356e-15
  3.6001e+03   1.2134e-15
  3.6037e+03   1.1771e-15
  3.6073e+03   1.1368e-15
  3.6109e+03   1.0901e-15
  3.6145e+03   1.0340e-15
  3.6181e+03   9.7424e-16
  3.6217e+03   9.1823e-16
  3.6253e+03   8.6558e-16
  3.6290e+03   8.1644e-16
  3.6326e+03   7.7470e-16
  3.6362e+03   7.4311e-16
  3.6399e+03   7.2428e-16
  3.6435e+03   7.1826e-16
  3.6472e+03   7.2190e-16
  3.6508e+03   7.3622e-16
  3.6544e+03   7.6511e-16
  3.6581e+03   8.0697e-16
  3.6618e+03   8.5740e-16
  3.6654e+03   9.1752e-16
  3.6691e+03   9.9049e-16
  3.6728e+03   1.0733e-15
  3.6764e+03   1.1644e-15
  3.6801e+03   1.2660e-15
  3.6838e+03   1.3704e-15
  3.6875e+03   1.4625e-15
  3.6912e+03   1.5354e-15
  3.6949e+03   1.5866e-15
  3.6985e+03   1.6100e-15
  3.7022e+03   1.6029e-15
  3.7059e+03   1.5726e-15
  3.7097e+03   1.5331e-15
  3.7134e+03   1.4950e-15
  3.7171e+03   1.4588e-15
  3.7208e+03   1.4245e-15
  3.7245e+03   1.3936e-15
  3.7282e+03   1.3622e-15
  3.7320e+03   1.3229e-15
  3.7357e+03   1.2758e-15
  3.7394e+03   1.2286e-15
  3.7432e+03   1.1846e-15
  3.7469e+03   1.1459e-15
  3.7507e+03   1.1159e-15
  3.7544e+03   1.0898e-15
  3.7582e+03   1.0608e-15
  3.7619e+03   1.0329e-15
  3.7657e+03   1.0133e-15
  3.7695e+03   9.9984e-16
  3.7732e+03   9.9019e-16
  3.7770e+03   9.8891e-16
  3.7808e+03   9.9708e-16
  3.7846e+03   1.0128e-15
  3.7883e+03   1.0377e-15
  3.7921e+03   1.0699e-15
  3.7959e+03   1.0991e-15
  3.7997e+03   1.1105e-15
  3.8035e+03   1.0936e-15
  3.8073e+03   1.0476e-15
  3.8111e+03   9.8094e-16
  3.8149e+03   9.0916e-16
  3.8188e+03   8.4655e-16
  3.8226e+03   7.9839e-16
  3.8264e+03   7.6192e-16
  3.8302e+03   7.3053e-16
  3.8341e+03   6.9786e-16
  3.8379e+03   6.6045e-16
  3.8417e+03   6.1936e-16
  3.8456e+03   5.7905e-16
  3.8494e+03   5.4409e-16
  3.8533e+03   5.1735e-16
  3.8571e+03   5.0047e-16
  3.8610e+03   4.9614e-16
  3.8648e+03   5.1059e-16
  3.8687e+03   5.4930e-16
  3.8726e+03   6.1198e-16
  3.8764e+03   6.9649e-16
  3.8803e+03   8.0140e-16
  3.8842e+03   9.2069e-16
  3.8881e+03   1.0440e-15
  3.8920e+03   1.1647e-15
  3.8959e+03   1.2822e-15
  3.8998e+03   1.3987e-15
  3.9037e+03   1.5169e-15
  3.9076e+03   1.6337e-15
  3.9115e+03   1.7405e-15
  3.9154e+03   1.8302e-15
  3.9193e+03   1.9031e-15
  3.9232e+03   1.9658e-15
  3.9271e+03   2.0239e-15
  3.9311e+03   2.0825e-15
  3.9350e+03   2.1459e-15
  3.9389e+03   2.2149e-15
  3.9429e+03   2.2885e-15
  3.9468e+03   2.3672e-15
  3.9508e+03   2.4530e-15
  3.9547e+03   2.5441e-15
  3.9587e+03   2.6306e-15
  3.9626e+03   2.7031e-15
  3.9666e+03   2.7592e-15
  3.9705e+03   2.8036e-15
  3.9745e+03   2.8412e-15
  3.9785e+03   2.8690e-15
  3.9825e+03   2.8747e-15
  3.9865e+03   2.8514e-15
  3.9904e+03   2.8082e-15
  3.9944e+03   2.7577e-15
  3.9984e+03   2.7040e-15
  4.0024e+03   2.6469e-15
  4.0064e+03   2.5855e-15
  4.0104e+03   2.5235e-15
  4.0144e+03   2.4707e-15
  4.0185e+03   2.4318e-15
  4.0225e+03   2.4038e-15
  4.0265e+03   2.3840e-15
  4.0305e+03   2.3755e-15
  4.0346e+03   2.3769e-15
  4.0386e+03   2.3772e-15
  4.0426e+03   2.3718e-15
  4.0467e+03   2.3604e-15
  4.0507e+03   2.3398e-15
  4.0548e+03   2.3106e-15
  4.0588e+03   2.2789e-15
  4.0629e+03   2.2549e-15
  4.0669e+03   2.2484e-15
  4.0710e+03   2.2626e-15
  4.0751e+03   2.2925e-15
  4.0792e+03   2.3188e-15
  4.0832e+03   2.3072e-15
  4.0873e+03   2.2360e-15
  4.0914e+03   2.1289e-15
  4.0955e+03   2.0394e-15
  4.0996e+03   2.0024e-15
  4.1037e+03   2.0205e-15
  4.1078e+03   2.0813e-15
  4.1119e+03   2.1685e-15
  4.1160e+03   2.2655e-15
  4.1201e+03   2.3635e-15
  4.1243e+03   2.4585e-15
  4.1284e+03   2.5436e-15
  4.1325e+03   2.6093e-15
  4.1366e+03   2.6541e-15
  4.1408e+03   2.6931e-15
  4.1449e+03   2.7446e-15
  4.1491e+03   2.8132e-15
  4.1532e+03   2.8965e-15
  4.1574e+03   2.9913e-15
  4.1615e+03   3.0901e-15
  4.1657e+03   3.1962e-15
  4.1698e+03   3.3226e-15
  4.1740e+03   3.4704e-15
  4.1782e+03   3.6245e-15
  4.1824e+03   3.7646e-15
  4.1866e+03   3.8873e-15
  4.1907e+03   4.0111e-15
  4.1949e+03   4.1487e-15
  4.1991e+03   4.2869e-15
  4.2033e+03   4.4066e-15
  4.2075e+03   4.5049e-15
  4.2117e+03   4.5774e-15
  4.2159e+03   4.6171e-15
  4.2202e+03   4.6267e-15
  4.2244e+03   4.6135e-15
  4.2286e+03   4.5777e-15
  4.2328e+03   4.5151e-15
  4.2371e+03   4.4324e-15
  4.2413e+03   4.3441e-15
  4.2455e+03   4.2600e-15
  4.2498e+03   4.1815e-15
  4.2540e+03   4.1025e-15
  4.2583e+03   4.0169e-15
  4.2626e+03   3.9247e-15
  4.2668e+03   3.8329e-15
  4.2711e+03   3.7544e-15
  4.2754e+03   3.6968e-15
  4.2796e+03   3.6585e-15
  4.2839e+03   3.6382e-15
  4.2882e+03   3.6413e-15
  4.2925e+03   3.6722e-15
  4.2968e+03   3.7274e-15
  4.3011e+03   3.8041e-15
  4.3054e+03   3.9013e-15
  4.3097e+03   4.0148e-15
  4.3140e+03   4.1468e-15
  4.3183e+03   4.3032e-15
  4.3226e+03   4.4785e-15
  4.3269e+03   4.6569e-15
  4.3313e+03   4.8347e-15
  4.3356e+03   5.0222e-15
  4.3399e+03   5.2228e-15
  4.3443e+03   5.4308e-15
  4.3486e+03   5.6439e-15
  4.3530e+03   5.8590e-15
  4.3573e+03   6.0541e-15
  4.3617e+03   6.2038e-15
  4.3660e+03   6.2971e-15
  4.3704e+03   6.3193e-15
  4.3748e+03   6.2634e-15
  4.3792e+03   6.1452e-15
  4.3835e+03   5.9812e-15
  4.3879e+03   5.7648e-15
  4.3923e+03   5.4803e-15
  4.3967e+03   5.1306e-15
  4.4011e+03   4.7415e-15
  4.4055e+03   4.3427e-15
  4.4099e+03   3.9520e-15
  4.4143e+03   3.5784e-15
  4.4187e+03   3.2329e-15
  4.4231e+03   2.9332e-15
  4.4276e+03   2.6932e-15
  4.4320e+03   2.5146e-15
  4.4364e+03   2.3915e-15
  4.4409e+03   2.3108e-15
  4.4453e+03   2.2558e-15
  4.4497e+03   2.2196e-15
  4.4542e+03   2.2085e-15
  4.4587e+03   2.2286e-15
  4.4631e+03   2.2768e-15
  4.4676e+03   2.3460e-15
  4.4720e+03   2.4319e-15
  4.4765e+03   2.5324e-15
  4.4810e+03   2.6433e-15
  4.4855e+03   2.7654e-15
  4.4900e+03   2.9033e-15
  4.4944e+03   3.0553e-15
  4.4989e+03   3.2205e-15
  4.5034e+03   3.3946e-15
  4.5079e+03   3.5735e-15
  4.5124e+03   3.7811e-15
  4.5170e+03   4.0354e-15
  4.5215e+03   4.3224e-15
  4.5260e+03   4.6315e-15
  4.5305e+03   4.9634e-15
  4.5351e+03   5.3144e-15
  4.5396e+03   5.6858e-15
  4.5441e+03   6.0886e-15
  4.5487e+03   6.5290e-15
  4.5532e+03   7.0069e-15
  4.5578e+03   7.5395e-15
  4.5623e+03   8.1389e-15
  4.5669e+03   8.7718e-15
  4.5715e+03   9.4175e-15
  4.5760e+03   1.0123e-14
  4.5806e+03   1.0911e-14
  4.5852e+03   1.1726e-14
  4.5898e+03   1.2528e-14
  4.5944e+03   1.3360e-14
  4.5990e+03   1.4279e-14
  4.6036e+03   1.5221e-14
  4.6082e+03   1.6078e-14
  4.6128e+03   1.6862e-14
  4.6174e+03   1.7617e-14
  4.6220e+03   1.8373e-14
  4.6266e+03   1.9140e-14
  4.6313e+03   1.9845e-14
  4.6359e+03   2.0439e-14
  4.6405e+03   2.0946e-14
  4.6452e+03   2.1370e-14
  4.6498e+03   2.1708e-14
  4.6545e+03   2.1962e-14
  4.6591e+03   2.2113e-14
  4.6638e+03   2.2151e-14
  4.6684e+03   2.2074e-14
  4.6731e+03   2.1912e-14
  4.6778e+03   2.1689e-14
  4.6825e+03   2.1398e-14
  4.6871e+03   2.1070e-14
  4.6918e+03   2.0754e-14
  4.6965e+03   2.0451e-14
  4.7012e+03   2.0165e-14
  4.7059e+03   1.9931e-14
  4.7106e+03   1.9728e-14
  4.7153e+03   1.9520e-14
  4.7200e+03   1.9329e-14
  4.7248e+03   1.9163e-14
  4.7295e+03   1.8956e-14
  4.7342e+03   1.8684e-14
  4.7390e+03   1.8381e-14
  4.7437e+03   1.8026e-14
  4.7484e+03   1.7589e-14
  4.7532e+03   1.7067e-14
  4.7579e+03   1.6415e-14
  4.7627e+03   1.5539e-14
  4.7675e+03   1.4381e-14
  4.7722e+03   1.2980e-14
  4.7770e+03   1.1445e-14
  4.7818e+03   9.9015e-15
  4.7866e+03   8.4575e-15
  4.7913e+03   7.1864e-15
  4.7961e+03   6.1176e-15
  4.8009e+03   5.2515e-15
  4.8057e+03   4.5755e-15
  4.8105e+03   4.0708e-15
  4.8153e+03   3.7074e-15
  4.8202e+03   3.4536e-15
  4.8250e+03   3.2993e-15
  4.8298e+03   3.2562e-15
  4.8346e+03   3.3286e-15
  4.8395e+03   3.4832e-15
  4.8443e+03   3.6641e-15
  4.8492e+03   3.8489e-15
  4.8540e+03   4.0560e-15
  4.8589e+03   4.2803e-15
  4.8637e+03   4.4797e-15
  4.8686e+03   4.6273e-15
  4.8734e+03   4.7211e-15
  4.8783e+03   4.7650e-15
  4.8832e+03   4.7687e-15
  4.8881e+03   4.7561e-15
  4.8930e+03   4.7488e-15
  4.8979e+03   4.7431e-15
  4.9028e+03   4.7291e-15
  4.9077e+03   4.7222e-15
  4.9126e+03   4.7437e-15
  4.9175e+03   4.8091e-15
  4.9224e+03   4.9311e-15
  4.9273e+03   5.1110e-15
  4.9323e+03   5.3443e-15
  4.9372e+03   5.6095e-15
  4.9421e+03   5.8796e-15
  4.9471e+03   6.1694e-15
  4.9520e+03   6.5037e-15
  4.9570e+03   6.8691e-15
  4.9619e+03   7.2420e-15
  4.9669e+03   7.6278e-15
  4.9718e+03   8.0449e-15
  4.9768e+03   8.4797e-15
  4.9818e+03   8.9011e-15
  4.9868e+03   9.3050e-15
  4.9918e+03   9.6658e-15
  4.9968e+03   9.8604e-15
  5.0018e+03   9.7341e-15
  5.0068e+03   9.2523e-15
  5.0118e+03   8.5274e-15
  5.0168e+03   7.6978e-15
  5.0218e+03   6.8588e-15
  5.0268e+03   6.0772e-15
  5.0318e+03   5.3938e-15
  5.0369e+03   4.8209e-15
  5.0419e+03   4.3529e-15
  5.0470e+03   3.9686e-15
  5.0520e+03   3.6525e-15
  5.0571e+03   3.4164e-15
  5.0621e+03   3.2701e-15
  5.0672e+03   3.1833e-15
  5.0722e+03   3.1301e-15
  5.0773e+03   3.1335e-15
  5.0824e+03   3.2129e-15
  5.0875e+03   3.3355e-15
  5.0926e+03   3.4527e-15
  5.0976e+03   3.5569e-15
  5.1027e+03   3.6798e-15
  5.1078e+03   3.8478e-15
  5.1130e+03   4.0526e-15
  5.1181e+03   4.2592e-15
  5.1232e+03   4.4434e-15
  5.1283e+03   4.6145e-15
  5.1334e+03   4.7818e-15
  5.1386e+03   4.9355e-15
  5.1437e+03   5.0805e-15
  5.1489e+03   5.2422e-15
  5.1540e+03   5.4175e-15
  5.1592e+03   5.5757e-15
  5.1643e+03   5.7086e-15
  5.1695e+03   5.8259e-15
  5.1746e+03   5.9295e-15
  5.1798e+03   6.0191e-15
  5.1850e+03   6.0921e-15
  5.1902e+03   6.1626e-15
  5.1954e+03   6.2522e-15
  5.2006e+03   6.3487e-15
  5.2058e+03   6.4383e-15
  5.2110e+03   6.5233e-15
  5.2162e+03   6.5901e-15
  5.2214e+03   6.6331e-15
  5.2266e+03   6.6826e-15
  5.2319e+03   6.7733e-15
  5.2371e+03   6.9004e-15
  5.2423e+03   7.0344e-15
  5.2476e+03   7.1588e-15
  5.2528e+03   7.2763e-15
  5.2581e+03   7.4032e-15
  5.2633e+03   7.5543e-15
  5.2686e+03   7.7312e-15
  5.2739e+03   7.9290e-15
  5.2791e+03   8.1284e-15
  5.2844e+03   8.3092e-15
  5.2897e+03   8.4791e-15
  5.2950e+03   8.6475e-15
  5.3003e+03   8.7912e-15
  5.3056e+03   8.8875e-15
  5.3109e+03   8.9501e-15
  5.3162e+03   8.9965e-15
  5.3215e+03   9.0164e-15
  5.3268e+03   9.0137e-15
  5.3322e+03   8.9987e-15
  5.3375e+03   8.9556e-15
  5.3428e+03   8.8781e-15
  5.3482e+03   8.7721e-15
  5.3535e+03   8.6326e-15
  5.3589e+03   8.4547e-15
  5.3642e+03   8.2412e-15
  5.3696e+03   8.0043e-15
  5.3750e+03   7.7565e-15
  5.3803e+03   7.4905e-15
  5.3857e+03   7.2002e-15
  5.3911e+03   6.9075e-15
  5.3965e+03   6.6358e-15
  5.4019e+03   6.3804e-15
  5.4073e+03   6.1314e-15
  5.4127e+03   5.8866e-15
  5.4181e+03   5.6353e-15
  5.4235e+03   5.3704e-15
  5.4290e+03   5.1040e-15
  5.4344e+03   4.8509e-15
  5.4398e+03   4.6053e-15
  5.4453e+03   4.3508e-15
  5.4507e+03   4.0933e-15
  5.4562e+03   3.8565e-15
  5.4616e+03   3.6473e-15
  5.4671e+03   3.4599e-15
  5.4725e+03   3.3007e-15
  5.4780e+03   3.1801e-15
  5.4835e+03   3.1030e-15
  5.4890e+03   3.0727e-15
  5.4945e+03   3.0841e-15
  5.5000e+03   3.1296e-15
  5.5055e+03   3.2103e-15
  5.5110e+03   3.3193e-15
  5.5165e+03   3.4325e-15
  5.5220e+03   3.5255e-15
  5.5275e+03   3.5912e-15
  5.5330e+03   3.6285e-15
  5.5386e+03   3.6255e-15
  5.5441e+03   3.5738e-15
  5.5497e+03   3.4799e-15
  5.5552e+03   3.3593e-15
  5.5608e+03   3.2292e-15
  5.5663e+03   3.0989e-15
  5.5719e+03   2.9659e-15
  5.5775e+03   2.8299e-15
  5.5830e+03   2.6955e-15
  5.5886e+03   2.5698e-15
  5.5942e+03   2.4548e-15
  5.5998e+03   2.3436e-15
  5.6054e+03   2.2370e-15
  5.6110e+03   2.1397e-15
  5.6166e+03   2.0471e-15
  5.6222e+03   1.9522e-15
  5.6279e+03   1.8542e-15
  5.6335e+03   1.7554e-15
  5.6391e+03   1.6530e-15
  5.6448e+03   1.5458e-15
  5.6504e+03   1.4413e-15
  5.6561e+03   1.3455e-15
  5.6617e+03   1.2545e-15
  5.6674e+03   1.1641e-15
  5.6730e+03   1.0732e-15
  5.6787e+03   9.8427e-16
  5.6844e+03   9.0449e-16
  5.6901e+03   8.3977e-16
  5.6958e+03   7.8903e-16
  5.7015e+03   7.5064e-16
  5.7072e+03   7.2481e-16
  5.7129e+03   7.0973e-16
  5.7186e+03   7.0451e-16
  5.7243e+03   7.1259e-16
  5.7300e+03   7.3654e-16
  5.7358e+03   7.7280e-16
  5.7415e+03   8.1600e-16
  5.7472e+03   8.6449e-16
  5.7530e+03   9.1699e-16
  5.7587e+03   9.7224e-16
  5.7645e+03   1.0359e-15
  5.7703e+03   1.1171e-15
  5.7760e+03   1.2177e-15
  5.7818e+03   1.3329e-15
  5.7876e+03   1.4594e-15
  5.7934e+03   1.5978e-15
  5.7992e+03   1.7477e-15
  5.8050e+03   1.9083e-15
  5.8108e+03   2.0841e-15
  5.8166e+03   2.2747e-15
  5.8224e+03   2.4718e-15
  5.8282e+03   2.6758e-15
  5.8341e+03   2.8920e-15
  5.8399e+03   3.1136e-15
  5.8457e+03   3.3370e-15
  5.8516e+03   3.5686e-15
  5.8574e+03   3.7980e-15
  5.8633e+03   4.0047e-15
  5.8691e+03   4.1834e-15
  5.8750e+03   4.3352e-15
  5.8809e+03   4.4551e-15
  5.8868e+03   4.5326e-15
  5.8927e+03   4.5641e-15
  5.8985e+03   4.5497e-15
  5.9044e+03   4.4848e-15
  5.9104e+03   4.3737e-15
  5.9163e+03   4.2333e-15
  5.9222e+03   4.0723e-15
  5.9281e+03   3.8890e-15
  5.9340e+03   3.6867e-15
  5.9400e+03   3.4783e-15
  5.9459e+03   3.2760e-15
  5.9518e+03   3.0804e-15
  5.9578e+03   2.8889e-15
  5.9638e+03   2.7031e-15
  5.9697e+03   2.5277e-15
  5.9757e+03   2.3659e-15
  5.9817e+03   2.2156e-15
  5.9876e+03   2.0762e-15
  5.9936e+03   1.9484e-15
  5.9996e+03   1.8269e-15
  6.0056e+03   1.7084e-15
  6.0116e+03   1.5926e-15
  6.0176e+03   1.4796e-15
  6.0237e+03   1.3774e-15
  6.0297e+03   1.2962e-15
  6.0357e+03   1.2384e-15
  6.0418e+03   1.2017e-15
  6.0478e+03   1.1850e-15
  6.0538e+03   1.1887e-15
  6.0599e+03   1.2124e-15
  6.0660e+03   1.2521e-15
  6.0720e+03   1.3029e-15
  6.0781e+03   1.3583e-15
  6.0842e+03   1.4124e-15
  6.0903e+03   1.4686e-15
  6.0963e+03   1.5314e-15
  6.1024e+03   1.5987e-15
  6.1085e+03   1.6696e-15
  6.1147e+03   1.7419e-15
  6.1208e+03   1.8126e-15
  6.1269e+03   1.8783e-15
  6.1330e+03   1.9327e-15
  6.1391e+03   1.9714e-15
  6.1453e+03   1.9932e-15
  6.1514e+03   1.9961e-15
  6.1576e+03   1.9807e-15
  6.1637e+03   1.9531e-15
  6.1699e+03   1.9174e-15
  6.1761e+03   1.8779e-15
  6.1823e+03   1.8420e-15
  6.1884e+03   1.8165e-15
  6.1946e+03   1.8010e-15
  6.2008e+03   1.7905e-15
  6.2070e+03   1.7840e-15
  6.2132e+03   1.7867e-15
  6.2194e+03   1.7992e-15
  6.2257e+03   1.8157e-15
  6.2319e+03   1.8293e-15
  6.2381e+03   1.8320e-15
  6.2444e+03   1.8147e-15
  6.2506e+03   1.7762e-15
  6.2569e+03   1.7235e-15
  6.2631e+03   1.6571e-15
  6.2694e+03   1.5737e-15
  6.2756e+03   1.4796e-15
  6.2819e+03   1.3862e-15
  6.2882e+03   1.2989e-15
  6.2945e+03   1.2196e-15
  6.3003e+03   1.1512e-15
  6.3066e+03   1.0964e-15
  6.3129e+03   1.0572e-15
  6.3192e+03   1.0333e-15
  6.3255e+03   1.0200e-15
  6.3319e+03   1.0120e-15
  6.3382e+03   1.0124e-15
  6.3445e+03   1.0293e-15
  6.3509e+03   1.0635e-15
  6.3572e+03   1.1088e-15
  6.3636e+03   1.1501e-15
  6.3638e+03   1.1749e-15
  6.3702e+03   1.1954e-15
  6.3765e+03   1.2290e-15
  6.3829e+03   1.2789e-15
  6.3893e+03   1.3440e-15
  6.3957e+03   1.4221e-15
  6.4021e+03   1.5085e-15
  6.4085e+03   1.6002e-15
  6.4149e+03   1.6989e-15
  6.4213e+03   1.8059e-15
  6.4277e+03   1.9153e-15
  6.4341e+03   2.0217e-15
  6.4406e+03   2.1246e-15
  6.4470e+03   2.2201e-15
  6.4535e+03   2.3016e-15
  6.4599e+03   2.3647e-15
  6.4664e+03   2.4110e-15
  6.4728e+03   2.4503e-15
  6.4793e+03   2.4896e-15
  6.4858e+03   2.5260e-15
  6.4923e+03   2.5565e-15
  6.4988e+03   2.5806e-15
  6.5053e+03   2.5928e-15
  6.5118e+03   2.5859e-15
  6.5183e+03   2.5565e-15
  6.5248e+03   2.5051e-15
  6.5313e+03   2.4388e-15
  6.5379e+03   2.3657e-15
  6.5444e+03   2.2865e-15
  6.5509e+03   2.1951e-15
  6.5575e+03   2.0908e-15
  6.5641e+03   1.9849e-15
  6.5706e+03   1.8889e-15
  6.5772e+03   1.7993e-15
  6.5838e+03   1.7029e-15
  6.5904e+03   1.5981e-15
  6.5969e+03   1.4946e-15
  6.6035e+03   1.3952e-15
  6.6101e+03   1.2963e-15
  6.6168e+03   1.2018e-15
  6.6234e+03   1.1185e-15
  6.6300e+03   1.0429e-15
  6.6366e+03   9.6804e-16
  6.6433e+03   8.9472e-16
  6.6499e+03   8.2749e-16
  6.6566e+03   7.6667e-16
  6.6632e+03   7.1124e-16
  6.6699e+03   6.6110e-16
  6.6765e+03   6.1520e-16
  6.6832e+03   5.7124e-16
  6.6899e+03   5.2867e-16
  6.6966e+03   4.9040e-16
  6.7033e+03   4.5826e-16
  6.7100e+03   4.3122e-16
  6.7167e+03   4.0822e-16
  6.7234e+03   3.8919e-16
  6.7301e+03   3.7474e-16
  6.7369e+03   3.6449e-16
  6.7436e+03   3.5783e-16
  6.7504e+03   3.5586e-16
  6.7571e+03   3.5923e-16
  6.7639e+03   3.6672e-16
  6.7706e+03   3.7836e-16
  6.7774e+03   3.9483e-16
  6.7842e+03   4.1528e-16
  6.7910e+03   4.3870e-16
  6.7977e+03   4.6488e-16
  6.8045e+03   4.9275e-16
  6.8113e+03   5.2002e-16
  6.8182e+03   5.4783e-16
  6.8250e+03   5.7959e-16
  6.8318e+03   6.1287e-16
  6.8386e+03   6.4280e-16
  6.8455e+03   6.7037e-16
  6.8523e+03   6.9702e-16
  6.8592e+03   7.2058e-16
  6.8660e+03   7.4249e-16
  6.8729e+03   7.6650e-16
  6.8798e+03   7.9101e-16
  6.8866e+03   8.1150e-16
  6.8935e+03   8.2580e-16
  6.9004e+03   8.3621e-16
  6.9073e+03   8.4567e-16
  6.9142e+03   8.5167e-16
  6.9212e+03   8.5117e-16
  6.9281e+03   8.4492e-16
  6.9350e+03   8.3698e-16
  6.9419e+03   8.3260e-16
  6.9489e+03   8.3271e-16
  6.9558e+03   8.3254e-16
  6.9628e+03   8.2644e-16
  6.9697e+03   8.1565e-16
  6.9767e+03   8.0526e-16
  6.9837e+03   7.9805e-16
  6.9907e+03   7.9409e-16
  6.9977e+03   7.9258e-16
  7.0047e+03   7.9351e-16
  7.0117e+03   7.9776e-16
  7.0187e+03   8.0512e-16
  7.0257e+03   8.1418e-16
  7.0327e+03   8.2858e-16
  7.0398e+03   8.5329e-16
  7.0468e+03   8.8514e-16
  7.0538e+03   9.2054e-16
  7.0609e+03   9.6624e-16
  7.0680e+03   1.0296e-15
  7.0750e+03   1.1040e-15
  7.0821e+03   1.1766e-15
  7.0892e+03   1.2454e-15
  7.0963e+03   1.3192e-15
  7.1034e+03   1.4035e-15
  7.1105e+03   1.4914e-15
  7.1176e+03   1.5718e-15
  7.1247e+03   1.6404e-15
  7.1318e+03   1.6958e-15
  7.1390e+03   1.7362e-15
  7.1461e+03   1.7617e-15
  7.1532e+03   1.7737e-15
  7.1604e+03   1.7736e-15
  7.1676e+03   1.7628e-15
  7.1747e+03   1.7426e-15
  7.1819e+03   1.7142e-15
  7.1891e+03   1.6805e-15
  7.1963e+03   1.6429e-15
  7.2035e+03   1.6027e-15
  7.2107e+03   1.5648e-15
  7.2179e+03   1.5325e-15
  7.2251e+03   1.5021e-15
  7.2323e+03   1.4686e-15
  7.2396e+03   1.4325e-15
  7.2468e+03   1.4019e-15
  7.2540e+03   1.3839e-15
  7.2613e+03   1.3770e-15
  7.2686e+03   1.3754e-15
  7.2758e+03   1.3792e-15
  7.2831e+03   1.3910e-15
  7.2904e+03   1.4048e-15
  7.2977e+03   1.4101e-15
  7.3050e+03   1.4052e-15
  7.3123e+03   1.3957e-15
  7.3196e+03   1.3815e-15
  7.3269e+03   1.3585e-15
  7.3342e+03   1.3276e-15
  7.3416e+03   1.2918e-15
  7.3489e+03   1.2530e-15
  7.3563e+03   1.2131e-15
  7.3636e+03   1.1774e-15
  7.3710e+03   1.1513e-15
  7.3784e+03   1.1407e-15
  7.3857e+03   1.1483e-15
  7.3931e+03   1.1696e-15
  7.4005e+03   1.2010e-15
  7.4079e+03   1.2413e-15
  7.4153e+03   1.2866e-15
  7.4227e+03   1.3332e-15
  7.4302e+03   1.3806e-15
  7.4376e+03   1.4292e-15
  7.4450e+03   1.4762e-15
  7.4525e+03   1.5143e-15
  7.4599e+03   1.5386e-15
  7.4674e+03   1.5512e-15
  7.4748e+03   1.5526e-15
  7.4823e+03   1.5366e-15
  7.4898e+03   1.4990e-15
  7.4973e+03   1.4455e-15
  7.5048e+03   1.3851e-15
  7.5123e+03   1.3197e-15
  7.5198e+03   1.2488e-15
  7.5273e+03   1.1736e-15
  7.5349e+03   1.0963e-15
  7.5424e+03   1.0191e-15
  7.5499e+03   9.4402e-16
  7.5575e+03   8.7309e-16
  7.5650e+03   8.0577e-16
  7.5726e+03   7.4247e-16
  7.5802e+03   6.8964e-16
  7.5878e+03   6.5230e-16
  7.5953e+03   6.2817e-16
  7.6029e+03   6.1582e-16
  7.6105e+03   6.1733e-16
  7.6182e+03   6.3192e-16
  7.6258e+03   6.5785e-16
  7.6334e+03   6.9491e-16
  7.6410e+03   7.4231e-16
  7.6487e+03   7.9754e-16
  7.6563e+03   8.5628e-16
  7.6640e+03   9.1678e-16
  7.6716e+03   9.7913e-16
  7.6793e+03   1.0392e-15
  7.6870e+03   1.0919e-15
  7.6947e+03   1.1354e-15
  7.7024e+03   1.1667e-15
  7.7101e+03   1.1817e-15
  7.7178e+03   1.1818e-15
  7.7255e+03   1.1710e-15
  7.7332e+03   1.1438e-15
  7.7410e+03   1.0934e-15
  7.7487e+03   1.0270e-15
  7.7565e+03   9.5835e-16
  7.7642e+03   8.9096e-16
  7.7720e+03   8.2087e-16
  7.7797e+03   7.4688e-16
  7.7875e+03   6.7256e-16
  7.7953e+03   6.0386e-16
  7.8031e+03   5.4437e-16
  7.8109e+03   4.9260e-16
  7.8187e+03   4.4746e-16
  7.8265e+03   4.1029e-16
  7.8344e+03   3.7962e-16
  7.8422e+03   3.5201e-16
  7.8500e+03   3.2557e-16
  7.8579e+03   2.9920e-16
  7.8658e+03   2.7288e-16
  7.8736e+03   2.4746e-16
  7.8815e+03   2.2346e-16
  7.8894e+03   2.0146e-16
  7.8973e+03   1.8240e-16
  7.9052e+03   1.6773e-16
  7.9131e+03   1.5867e-16
  7.9210e+03   1.5472e-16
  7.9289e+03   1.5306e-16
  7.9368e+03   1.5153e-16
  7.9448e+03   1.5191e-16
  7.9527e+03   1.5725e-16
  7.9607e+03   1.6685e-16
  7.9686e+03   1.7791e-16
  7.9766e+03   1.8961e-16
  7.9846e+03   2.0263e-16
  7.9926e+03   2.1777e-16
  8.0005e+03   2.3514e-16
  8.0085e+03   2.5375e-16
  8.0166e+03   2.7226e-16
  8.0246e+03   2.8889e-16
  8.0326e+03   3.0315e-16
  8.0406e+03   3.1634e-16
  8.0487e+03   3.2881e-16
  8.0567e+03   3.4109e-16
  8.0648e+03   3.5432e-16
  8.0728e+03   3.6737e-16
  8.0809e+03   3.7916e-16
  8.0890e+03   3.9122e-16
  8.0971e+03   4.0295e-16
  8.1052e+03   4.1126e-16
  8.1133e+03   4.1608e-16
  8.1214e+03   4.1912e-16
  8.1295e+03   4.1958e-16
  8.1376e+03   4.1516e-16
  8.1458e+03   4.0546e-16
  8.1539e+03   3.9261e-16
  8.1621e+03   3.7969e-16
  8.1702e+03   3.6721e-16
  8.1784e+03   3.5136e-16
  8.1866e+03   3.3092e-16
  8.1948e+03   3.1042e-16
  8.2030e+03   2.8943e-16
  8.2112e+03   2.5949e-16
  8.2194e+03   2.1711e-16
  8.2276e+03   1.7070e-16
  8.2358e+03   1.3145e-16
  8.2441e+03   1.0407e-16
  8.2523e+03   8.7224e-17
  8.2606e+03   7.7538e-17
  8.2688e+03   7.2307e-17
  8.2771e+03   7.0608e-17
  8.2854e+03   7.2512e-17
  8.2937e+03   7.7808e-17
  8.3020e+03   8.5660e-17
  8.3103e+03   9.5458e-17
  8.3186e+03   1.0700e-16
  8.3269e+03   1.1915e-16
  8.3352e+03   1.3120e-16
  8.3435e+03   1.4641e-16
  8.3519e+03   1.6818e-16
  8.3602e+03   1.9114e-16
  8.3686e+03   2.0425e-16
  8.3770e+03   2.0306e-16
  8.3854e+03   1.9419e-16
  8.3937e+03   1.8669e-16
  8.4021e+03   1.8431e-16
  8.4105e+03   1.8669e-16
  8.4189e+03   1.9146e-16
  8.4274e+03   1.9683e-16
  8.4358e+03   2.0200e-16
  8.4442e+03   2.0793e-16
  8.4527e+03   2.1886e-16
  8.4611e+03   2.3907e-16
  8.4696e+03   2.6821e-16
  8.4781e+03   2.9975e-16
  8.4865e+03   3.2574e-16
  8.4950e+03   3.4407e-16
  8.5035e+03   3.5897e-16
  8.5120e+03   3.7367e-16
  8.5205e+03   3.8822e-16
  8.5290e+03   4.0325e-16
  8.5376e+03   4.1931e-16
  8.5461e+03   4.3619e-16
  8.5547e+03   4.5466e-16
  8.5632e+03   4.7472e-16
  8.5718e+03   4.9321e-16
  8.5804e+03   5.0682e-16
  8.5889e+03   5.1637e-16
  8.5975e+03   5.2422e-16
  8.6061e+03   5.3086e-16
  8.6147e+03   5.3558e-16
  8.6233e+03   5.3985e-16
  8.6320e+03   5.4420e-16
  8.6406e+03   5.4605e-16
  8.6492e+03   5.4597e-16
  8.6579e+03   5.4602e-16
  8.6665e+03   5.4386e-16
  8.6752e+03   5.3863e-16
  8.6839e+03   5.3384e-16
  8.6926e+03   5.2944e-16
  8.7013e+03   5.2253e-16
  8.7100e+03   5.1283e-16
  8.7187e+03   5.0237e-16
  8.7274e+03   4.9260e-16
  8.7361e+03   4.8182e-16
  8.7449e+03   4.6913e-16
  8.7536e+03   4.5666e-16
  8.7624e+03   4.4465e-16
  8.7711e+03   4.3294e-16
  8.7799e+03   4.2252e-16
  8.7887e+03   4.1188e-16
  8.7975e+03   4.0047e-16
  8.8062e+03   3.9171e-16
  8.8151e+03   3.8609e-16
  8.8239e+03   3.7992e-16
  8.8327e+03   3.7227e-16
  8.8415e+03   3.6560e-16
  8.8504e+03   3.6115e-16
  8.8592e+03   3.5840e-16
  8.8681e+03   3.5651e-16
  8.8769e+03   3.5255e-16
  8.8858e+03   3.4316e-16
  8.8947e+03   3.2883e-16
  8.9036e+03   3.1232e-16
  8.9125e+03   2.9567e-16
  8.9214e+03   2.8064e-16
  8.9303e+03   2.6828e-16
  8.9393e+03   2.5766e-16
  8.9482e+03   2.4683e-16
  8.9572e+03   2.3630e-16
  8.9661e+03   2.2903e-16
  8.9751e+03   2.2640e-16
  8.9841e+03   2.2710e-16
  8.9930e+03   2.2869e-16
  9.0020e+03   2.2949e-16
  9.0110e+03   2.2999e-16
  9.0200e+03   2.3094e-16
  9.0291e+03   2.3164e-16
  9.0381e+03   2.3139e-16
  9.0471e+03   2.2993e-16
  9.0562e+03   2.2730e-16
  9.0652e+03   2.2523e-16
  9.0743e+03   2.2542e-16
  9.0834e+03   2.2661e-16
  9.0925e+03   2.2717e-16
  9.1016e+03   2.2805e-16
  9.1107e+03   2.3067e-16
  9.1198e+03   2.3530e-16
  9.1289e+03   2.4243e-16
  9.1380e+03   2.5172e-16
  9.1472e+03   2.6195e-16
  9.1563e+03   2.7372e-16
  9.1655e+03   2.8910e-16
  9.1746e+03   3.0972e-16
  9.1838e+03   3.3538e-16
  9.1930e+03   3.6423e-16
  9.2022e+03   3.9553e-16
  9.2114e+03   4.2946e-16
  9.2206e+03   4.6675e-16
  9.2298e+03   5.0869e-16
  9.2390e+03   5.5537e-16
  9.2483e+03   6.0545e-16
  9.2575e+03   6.5768e-16
  9.2668e+03   7.1110e-16
  9.2760e+03   7.6534e-16
  9.2853e+03   8.2286e-16
  9.2946e+03   8.8384e-16
  9.3039e+03   9.4361e-16
  9.3132e+03   9.9964e-16
  9.3225e+03   1.0492e-15
  9.3318e+03   1.0868e-15
  9.3412e+03   1.1088e-15
  9.3505e+03   1.1150e-15
  9.3599e+03   1.1062e-15
  9.3692e+03   1.0833e-15
  9.3786e+03   1.0460e-15
  9.3880e+03   9.9758e-16
  9.3974e+03   9.4683e-16
  9.4068e+03   8.9932e-16
  9.4162e+03   8.5257e-16
  9.4256e+03   8.0319e-16
  9.4350e+03   7.5321e-16
  9.4444e+03   7.0658e-16
  9.4539e+03   6.6665e-16
  9.4633e+03   6.3467e-16
  9.4728e+03   6.0628e-16
  9.4823e+03   5.7683e-16
  9.4918e+03   5.4801e-16
  9.5013e+03   5.2349e-16
  9.5108e+03   5.0350e-16
  9.5203e+03   4.8724e-16
  9.5298e+03   4.7526e-16
  9.5393e+03   4.6694e-16
  9.5489e+03   4.6054e-16
  9.5584e+03   4.5524e-16
  9.5680e+03   4.5095e-16
  9.5775e+03   4.4923e-16
  9.5871e+03   4.5018e-16
  9.5967e+03   4.5068e-16
  9.6063e+03   4.5034e-16
  9.6159e+03   4.5097e-16
  9.6255e+03   4.5028e-16
  9.6351e+03   4.4705e-16
  9.6448e+03   4.4461e-16
  9.6544e+03   4.4322e-16
  9.6641e+03   4.3998e-16
  9.6737e+03   4.3510e-16
  9.6834e+03   4.3040e-16
  9.6931e+03   4.2450e-16
  9.7028e+03   4.1575e-16
  9.7125e+03   4.0517e-16
  9.7222e+03   3.9461e-16
  9.7319e+03   3.8625e-16
  9.7417e+03   3.8025e-16
  9.7514e+03   3.7427e-16
  9.7611e+03   3.6942e-16
  9.7709e+03   3.6818e-16
  9.7807e+03   3.6847e-16
  9.7905e+03   3.6804e-16
  9.8003e+03   3.6818e-16
  9.8101e+03   3.7052e-16
  9.8199e+03   3.7466e-16
  9.8297e+03   3.8030e-16
  9.8395e+03   3.8726e-16
  9.8494e+03   3.9416e-16
  9.8592e+03   4.0165e-16
  9.8691e+03   4.1086e-16
  9.8789e+03   4.2147e-16
  9.8888e+03   4.3339e-16
  9.8987e+03   4.4602e-16
  9.9086e+03   4.5783e-16
  9.9185e+03   4.6537e-16
  9.9284e+03   4.5994e-16
  9.9384e+03   4.1733e-16
  9.9483e+03   3.0881e-16
